%YAML 1.1
%TAG !u! tag:unity3d.com,2011:
--- !u!114 &11400000
MonoBehaviour:
  m_ObjectHideFlags: 0
  m_CorrespondingSourceObject: {fileID: 0}
  m_PrefabInternal: {fileID: 0}
  m_GameObject: {fileID: 0}
  m_Enabled: 1
  m_EditorHideFlags: 0
  m_Script: {fileID: 11500000, guid: fef26e9651505914687cba1a1cf08cb0, type: 3}
  m_Name: _HeavyArmor
  m_EditorClassIdentifier: 
  entries:
  - builder: {fileID: 11400000, guid: ce9ad34527e6a9244a776756a83c0d10, type: 2}
    frequency: 1
  - builder: {fileID: 11400000, guid: bb67b90f0631e884f9399889f8dfd0bf, type: 2}
    frequency: 1
  - builder: {fileID: 11400000, guid: b39519a7bd4023f4ab42b7ff7a96f2ea, type: 2}
    frequency: 1
