%YAML 1.1
%TAG !u! tag:unity3d.com,2011:
--- !u!114 &11400000
MonoBehaviour:
  m_ObjectHideFlags: 0
  m_CorrespondingSourceObject: {fileID: 0}
  m_PrefabInternal: {fileID: 0}
  m_GameObject: {fileID: 0}
  m_Enabled: 1
  m_EditorHideFlags: 0
  m_Script: {fileID: 11500000, guid: bddfe7ab9296d0e42a7c9d1e95437675, type: 3}
  m_Name: Spades
  m_EditorClassIdentifier: 
  name: Spades
  icon: {fileID: 21300000, guid: 42b77a0646cd82e47a7092adb353f1ef, type: 3}
  stats: []
  ability: {fileID: 11400000, guid: 074605b94fe591c4ba81b8e5fa519a51, type: 2}
