%YAML 1.1
%TAG !u! tag:unity3d.com,2011:
--- !u!114 &11400000
MonoBehaviour:
  m_ObjectHideFlags: 0
  m_CorrespondingSourceObject: {fileID: 0}
  m_PrefabInternal: {fileID: 0}
  m_GameObject: {fileID: 0}
  m_Enabled: 1
  m_EditorHideFlags: 0
  m_Script: {fileID: 11500000, guid: 8b47fc76a4c9e7c42b0a035b6cb9c2fa, type: 3}
  m_Name: _frostbite
  m_EditorClassIdentifier: 
  name: Frostbite
  proficiencyType: 0
  sprite: {fileID: 21300000, guid: f1638d36daaf5bf4ba7aab0508020848, type: 3}
  spriteManager: {fileID: 11400000, guid: 5fe216c4403efbd4598084a395e6c837, type: 2}
  spriteIndex: 82
  damageFactor: 0
  conditions: []
  damages: []
  selfDamages: []
  buffs: []
  debuffs:
  - {fileID: 11400000, guid: a012be2829cb4dc4e8a5450e5ea8c331, type: 2}
  instanceStats: []
  unitResources: []
  purgeCount: 0
  cleanseCount: 0
  procTarget: 1
  procTrigger: 16
  procChance: 0.25
