%YAML 1.1
%TAG !u! tag:unity3d.com,2011:
--- !u!114 &11400000
MonoBehaviour:
  m_ObjectHideFlags: 0
  m_CorrespondingSourceObject: {fileID: 0}
  m_PrefabInternal: {fileID: 0}
  m_GameObject: {fileID: 0}
  m_Enabled: 1
  m_EditorHideFlags: 0
  m_Script: {fileID: 11500000, guid: dfee2b7e609ced244972e938e7722a17, type: 3}
  m_Name: __twinned
  m_EditorClassIdentifier: 
  name: Twinned
  sprite: {fileID: 21300000, guid: ba62e645a3841924fb3e89d880f4c0a0, type: 3}
  augmentBuilder: {fileID: 11400000, guid: b660732b74168304ea3b7ae2c8cd4419, type: 2}
  resourceAugments: []
  stats: []
