%YAML 1.1
%TAG !u! tag:unity3d.com,2011:
--- !u!114 &11400000
MonoBehaviour:
  m_ObjectHideFlags: 0
  m_CorrespondingSourceObject: {fileID: 0}
  m_PrefabInternal: {fileID: 0}
  m_GameObject: {fileID: 0}
  m_Enabled: 1
  m_EditorHideFlags: 0
  m_Script: {fileID: 11500000, guid: 34d54bd23b2538843be110b1e45e7c11, type: 3}
  m_Name: Cooldowns
  m_EditorClassIdentifier: 
  name: Ginger
  descriptionColor:
    UseConstant: 0
    ConstantValue: {r: 0, g: 0, b: 0, a: 0}
    Variable: {fileID: 11400000, guid: c58b39597a45ff748bf5c5dde0b05456, type: 2}
  descriptionPrefix:
    UseConstant: 1
    ConstantValue: Refresh all ability cooldowns
    Variable: {fileID: 0}
