%YAML 1.1
%TAG !u! tag:unity3d.com,2011:
--- !u!114 &11400000
MonoBehaviour:
  m_ObjectHideFlags: 0
  m_CorrespondingSourceObject: {fileID: 0}
  m_PrefabInternal: {fileID: 0}
  m_GameObject: {fileID: 0}
  m_Enabled: 1
  m_EditorHideFlags: 0
  m_Script: {fileID: 11500000, guid: dfee2b7e609ced244972e938e7722a17, type: 3}
  m_Name: _Option 1
  m_EditorClassIdentifier: 
  name: Leaden
  sprite: {fileID: 21300000, guid: 32ffbc3200735934ea92178e9bfdb501, type: 3}
  augmentBuilder: {fileID: 11400000, guid: 84d0328f221bfdf498f493316e93a937, type: 2}
  resourceAugments: []
  stats: []
