%YAML 1.1
%TAG !u! tag:unity3d.com,2011:
--- !u!114 &11400000
MonoBehaviour:
  m_ObjectHideFlags: 0
  m_CorrespondingSourceObject: {fileID: 0}
  m_PrefabInternal: {fileID: 0}
  m_GameObject: {fileID: 0}
  m_Enabled: 1
  m_EditorHideFlags: 0
  m_Script: {fileID: 11500000, guid: 132f10f97475e1949be71a8a949dbf57, type: 3}
  m_Name: __tippedDart
  m_EditorClassIdentifier: 
  name: Tipped Dart
  leftSprite: {fileID: 21300000, guid: 8b2c916c0d307d941b57988f49f1ba7e, type: 3}
  rightSprite: {fileID: 21300000, guid: 9399d37f80a679b478f85356a79e7258, type: 3}
  timedAbility: {fileID: 11400000, guid: b5b74bf7249cffe4a89c30a7def3d684, type: 2}
  triggeredAbility: {fileID: 0}
  options:
  - {fileID: 11400000, guid: 096bfd7d2b1b8c2458c9acc09f09b219, type: 2}
  - {fileID: 11400000, guid: 3c7d51ccc50aa1944873daa3d9b562ee, type: 2}
  - {fileID: 11400000, guid: 3e4a34ac5804bd44895b7439911660fd, type: 2}
  resourceAugments: []
  stats: []
