%YAML 1.1
%TAG !u! tag:unity3d.com,2011:
--- !u!114 &11400000
MonoBehaviour:
  m_ObjectHideFlags: 0
  m_CorrespondingSourceObject: {fileID: 0}
  m_PrefabInternal: {fileID: 0}
  m_GameObject: {fileID: 0}
  m_Enabled: 1
  m_EditorHideFlags: 0
  m_Script: {fileID: 11500000, guid: d9a95c8fb803c9642b95793a3a706c25, type: 3}
  m_Name: Burly
  m_EditorClassIdentifier: 
  DeveloperDescription: 
  name: Burly
  staticStats:
  - ModifierType: 2
    StatType: 0
    Value: 0.25
  - ModifierType: 2
    StatType: 5
    Value: 0.15
  - ModifierType: 2
    StatType: 4
    Value: 0.1
  statScalingPerLevel: 0
  abilities: []
  triggeredActions: []
  talents:
  - left: {fileID: 0}
    right: {fileID: 0}
  bonusLootMods: 0
  bonusLootLevel: 2
  identifyChance: 0
  unitResourceAugments: []
  lootValue: {fileID: 11400000, guid: dfc689d3078a33a4b9ca5621a282b40c, type: 2}
