%YAML 1.1
%TAG !u! tag:unity3d.com,2011:
--- !u!114 &11400000
MonoBehaviour:
  m_ObjectHideFlags: 0
  m_CorrespondingSourceObject: {fileID: 0}
  m_PrefabInternal: {fileID: 0}
  m_GameObject: {fileID: 0}
  m_Enabled: 1
  m_EditorHideFlags: 0
  m_Script: {fileID: 11500000, guid: d9a95c8fb803c9642b95793a3a706c25, type: 3}
  m_Name: Alchemist
  m_EditorClassIdentifier: 
  DeveloperDescription: 
  name: Alchemist
  staticStats:
  - ModifierType: 0
    StatType: 0
    Value: 10
  - ModifierType: 0
    StatType: 5
    Value: 5
  statScalingPerLevel: 0
  abilities:
  - {fileID: 11400000, guid: 20254bd552a48b148865ca7f1bacef6e, type: 2}
  triggeredActions: []
  talents:
  - left: {fileID: 11400000, guid: 243917f1d5be59f41a4b6632744fbba1, type: 2}
    right: {fileID: 11400000, guid: 7210312f78b123d448e7e633a9f516ab, type: 2}
  - left: {fileID: 11400000, guid: 1ec2bfc36dc6251448ab8f5bdd42334d, type: 2}
    right: {fileID: 11400000, guid: 3230d6183f7633a4aa39f0d6d8ae4793, type: 2}
  - left: {fileID: 11400000, guid: daf6df07dd078084aace4d270b4009bb, type: 2}
    right: {fileID: 11400000, guid: 24f156ea1551d984d901912af916ffb6, type: 2}
  - left: {fileID: 11400000, guid: 4467db545c4334341ac534a375ffca23, type: 2}
    right: {fileID: 11400000, guid: e63de1772ded150489b29c4cf3ef04e9, type: 2}
  - left: {fileID: 11400000, guid: 9ba642d19114b8d409461c087c4da5d0, type: 2}
    right: {fileID: 11400000, guid: 3e8409949c262a141ab5c3408863c54a, type: 2}
  bonusLootMods: 0
  bonusLootLevel: 0
  identifyChance: 0
  unitResourceAugments:
  - type: 2
    cap: 3
    stats: []
  - type: 7
    cap: 3
    stats: []
  lootValue: {fileID: 0}
