%YAML 1.1
%TAG !u! tag:unity3d.com,2011:
--- !u!114 &11400000
MonoBehaviour:
  m_ObjectHideFlags: 0
  m_CorrespondingSourceObject: {fileID: 0}
  m_PrefabInternal: {fileID: 0}
  m_GameObject: {fileID: 0}
  m_Enabled: 1
  m_EditorHideFlags: 0
  m_Script: {fileID: 11500000, guid: 132f10f97475e1949be71a8a949dbf57, type: 3}
  m_Name: __jul'ro'lo
  m_EditorClassIdentifier: 
  name: Jul'ro'lo
  leftSprite: {fileID: 21300000, guid: 6be378369b5ba4346952a9ccea8ea5b9, type: 3}
  rightSprite: {fileID: 0}
  timedAbility: {fileID: 11400000, guid: b3aa33bd6048c994896eda8aa4b7fa81, type: 2}
  triggeredAbility: {fileID: 0}
  options:
  - {fileID: 11400000, guid: b8c5c3b5733c0bd468bdfeabe046f469, type: 2}
  - {fileID: 11400000, guid: 7ec8bdc6aef55f647aeef06c6a2ec886, type: 2}
  - {fileID: 11400000, guid: ed3830ca2bfa36446a79e136c8d484ad, type: 2}
  resourceAugments: []
  stats:
  - ModifierType: 0
    StatType: 0
    Value: -4
