%YAML 1.1
%TAG !u! tag:unity3d.com,2011:
--- !u!114 &11400000
MonoBehaviour:
  m_ObjectHideFlags: 0
  m_CorrespondingSourceObject: {fileID: 0}
  m_PrefabInternal: {fileID: 0}
  m_GameObject: {fileID: 0}
  m_Enabled: 1
  m_EditorHideFlags: 0
  m_Script: {fileID: 11500000, guid: bfc75ed583b1e0a4eb131f4e602db319, type: 3}
  m_Name: Enchantment2
  m_EditorClassIdentifier: 
  craftingCost:
  - type: 1
    value: -15
    lifetime: 0
  upgradeCost:
  - type: 1
    value: -25
    lifetime: 0
