%YAML 1.1
%TAG !u! tag:unity3d.com,2011:
--- !u!114 &11400000
MonoBehaviour:
  m_ObjectHideFlags: 0
  m_CorrespondingSourceObject: {fileID: 0}
  m_PrefabInternal: {fileID: 0}
  m_GameObject: {fileID: 0}
  m_Enabled: 1
  m_EditorHideFlags: 0
  m_Script: {fileID: 11500000, guid: 132f10f97475e1949be71a8a949dbf57, type: 3}
  m_Name: _gutshot
  m_EditorClassIdentifier: 
  name: Gutshot
  leftSprite: {fileID: 21300000, guid: 8b2c916c0d307d941b57988f49f1ba7e, type: 3}
  rightSprite: {fileID: 21300000, guid: 9399d37f80a679b478f85356a79e7258, type: 3}
  timedAbility: {fileID: 11400000, guid: 53972c3fa52042548b8e9bd00d73a1a8, type: 2}
  triggeredAbility: {fileID: 0}
  options:
  - {fileID: 11400000, guid: ceea9784217b360469adff487faa99ec, type: 2}
  - {fileID: 11400000, guid: 8756d613f5cd94c4787198cbe0fa0d5e, type: 2}
  - {fileID: 11400000, guid: 168e5651a4bfd3b4585e832374ec7110, type: 2}
  resourceAugments: []
  stats: []
