%YAML 1.1
%TAG !u! tag:unity3d.com,2011:
--- !u!114 &11400000
MonoBehaviour:
  m_ObjectHideFlags: 0
  m_CorrespondingSourceObject: {fileID: 0}
  m_PrefabInternal: {fileID: 0}
  m_GameObject: {fileID: 0}
  m_Enabled: 1
  m_EditorHideFlags: 0
  m_Script: {fileID: 11500000, guid: dfee2b7e609ced244972e938e7722a17, type: 3}
  m_Name: __flux
  m_EditorClassIdentifier: 
  name: Flux
  sprite: {fileID: 21300000, guid: 081f7ffe8a83a11439b2581a5d28b405, type: 3}
  augmentBuilder: {fileID: 11400000, guid: 6de4f0d4a05e5f04da6f7aafcd1a3eec, type: 2}
  resourceAugments: []
  stats: []
