%YAML 1.1
%TAG !u! tag:unity3d.com,2011:
--- !u!114 &11400000
MonoBehaviour:
  m_ObjectHideFlags: 0
  m_CorrespondingSourceObject: {fileID: 0}
  m_PrefabInternal: {fileID: 0}
  m_GameObject: {fileID: 0}
  m_Enabled: 1
  m_EditorHideFlags: 0
  m_Script: {fileID: 11500000, guid: d9a95c8fb803c9642b95793a3a706c25, type: 3}
  m_Name: Acolyte
  m_EditorClassIdentifier: 
  DeveloperDescription: 
  name: Acolyte
  staticStats:
  - ModifierType: 0
    StatType: 38
    Value: 5
  - ModifierType: 0
    StatType: 44
    Value: 5
  statScalingPerLevel: 0
  abilities:
  - {fileID: 11400000, guid: 23d2f8a9b42cdfd4aaf4379475dbf588, type: 2}
  triggeredActions: []
  talents:
  - left: {fileID: 11400000, guid: c188f4a1bea6fc34eaa5f8d5c3832888, type: 2}
    right: {fileID: 11400000, guid: 60bad8b0f2eab1c4cad7767e5fc106a9, type: 2}
  - left: {fileID: 11400000, guid: 20bdaa8f5501714409ab88326e24e41e, type: 2}
    right: {fileID: 11400000, guid: c20054c4d617cab4a8726b1bfa0f65cb, type: 2}
  - left: {fileID: 11400000, guid: b36ba19cfffd6a14488234079137cd68, type: 2}
    right: {fileID: 11400000, guid: 864915b5cffea29498ad6062817ec0fc, type: 2}
  - left: {fileID: 11400000, guid: 53f573b6f54d52b4a8e5456b907728c8, type: 2}
    right: {fileID: 11400000, guid: e37189dc71b2c2545bc8fe30186aa51f, type: 2}
  - left: {fileID: 11400000, guid: d9c1a5e32ce0e5643bbaa8f18abbb8b8, type: 2}
    right: {fileID: 11400000, guid: 4e71728956fad164b8065c3cf7614a41, type: 2}
  bonusLootMods: 0
  bonusLootLevel: 0
  identifyChance: 0
  unitResourceAugments: []
  lootValue: {fileID: 0}
