%YAML 1.1
%TAG !u! tag:unity3d.com,2011:
--- !u!114 &11400000
MonoBehaviour:
  m_ObjectHideFlags: 0
  m_CorrespondingSourceObject: {fileID: 0}
  m_PrefabInternal: {fileID: 0}
  m_GameObject: {fileID: 0}
  m_Enabled: 1
  m_EditorHideFlags: 0
  m_Script: {fileID: 11500000, guid: 9a2e47d13ff673d4cbd6e82bc4151082, type: 3}
  m_Name: ProcTriggerNames
  m_EditorClassIdentifier: 
  procTypeNames:
  - trigger: 0
    selfName: when unit is hit
    targetName: when unit hits
  - trigger: 1
    selfName: when unit is critically hit
    targetName: when unit critically hits
  - trigger: 2
    selfName: when unit is non-critically hit
    targetName: when unit non-critically hits
  - trigger: 3
    selfName: when unit gains a buff
    targetName: when target gains a buff
  - trigger: 4
    selfName: when unit gains a debuff
    targetName: when target gains a debuff
  - trigger: 5
    selfName: when target misses
    targetName: when unit misses
  - trigger: 6
    selfName: when unit dodges
    targetName: when target dodges
  - trigger: 7
    selfName: when unit blocks
    targetName: when target blocks
  - trigger: 8
    selfName: when unit heals
    targetName: when target heals
  - trigger: 9
    selfName: when unit takes physical
    targetName: when target takes physical
  - trigger: 10
    selfName: when unit takes poison
    targetName: when target takes poison
  - trigger: 11
    selfName: when unit takes bleed
    targetName: when target takes bleed
  - trigger: 12
    selfName: when unit takes fire
    targetName: when target takes fire
  - trigger: 13
    selfName: when unit takes cold
    targetName: when target takes cold
  - trigger: 14
    selfName: when unit takes arcane
    targetName: when target takes arcane
  - trigger: 15
    selfName: when unit takes dark
    targetName: when target takes dark
  - trigger: 16
    selfName: when target uses spell
    targetName: when unit uses spell
  - trigger: 17
    selfName: when target uses support
    targetName: when unit uses support
  - trigger: 18
    selfName: when target uses pierce
    targetName: when unit uses pierce
  - trigger: 19
    selfName: when target uses blunt
    targetName: when unit uses blunt
  - trigger: 20
    selfName: when target uses tech
    targetName: when unit uses tech
  - trigger: 21
    selfName: when target uses curse
    targetName: when unit uses curse
