%YAML 1.1
%TAG !u! tag:unity3d.com,2011:
--- !u!114 &11400000
MonoBehaviour:
  m_ObjectHideFlags: 0
  m_CorrespondingSourceObject: {fileID: 0}
  m_PrefabInternal: {fileID: 0}
  m_GameObject: {fileID: 0}
  m_Enabled: 1
  m_EditorHideFlags: 0
  m_Script: {fileID: 11500000, guid: bf31ac307313d6348a2252f58164a1de, type: 3}
  m_Name: _Leather
  m_EditorClassIdentifier: 
  setName: Leather
  generators:
  - generator: {fileID: 11400000, guid: 90609a34bc5a1be4c804c2295273eb6c, type: 2}
    frequency: 1
  - generator: {fileID: 11400000, guid: 73b1cb5e2a14a4e49b28958c9548a592, type: 2}
    frequency: 0.5
  - generator: {fileID: 11400000, guid: 7373ba4590f19d746a0c4f6cc2ae30c8, type: 2}
    frequency: 0.25
  - generator: {fileID: 11400000, guid: 5f6139bafd9916549a5fa54facde4788, type: 2}
    frequency: 1
