%YAML 1.1
%TAG !u! tag:unity3d.com,2011:
--- !u!114 &11400000
MonoBehaviour:
  m_ObjectHideFlags: 0
  m_CorrespondingSourceObject: {fileID: 0}
  m_PrefabInternal: {fileID: 0}
  m_GameObject: {fileID: 0}
  m_Enabled: 1
  m_EditorHideFlags: 0
  m_Script: {fileID: 11500000, guid: 0c160bc2729196148800148187854b1b, type: 3}
  m_Name: antidote
  m_EditorClassIdentifier: 
  name: Antidote
  spriteManager: {fileID: 11400000, guid: 5fe216c4403efbd4598084a395e6c837, type: 2}
  spriteIndex: 86
  sprite: {fileID: 21300000, guid: e594348f7016dd643b031dc8d5fbed87, type: 3}
  duration: 24
  period: 0
  damageFactor: 0
  periodicDamages: []
  finalDamages: []
  stats:
  - ModifierType: 0
    StatType: 9
    Value: 12
  - ModifierType: 0
    StatType: 7
    Value: 5
