%YAML 1.1
%TAG !u! tag:unity3d.com,2011:
--- !u!114 &11400000
MonoBehaviour:
  m_ObjectHideFlags: 0
  m_CorrespondingSourceObject: {fileID: 0}
  m_PrefabInternal: {fileID: 0}
  m_GameObject: {fileID: 0}
  m_Enabled: 1
  m_EditorHideFlags: 0
  m_Script: {fileID: 11500000, guid: dfee2b7e609ced244972e938e7722a17, type: 3}
  m_Name: __execution
  m_EditorClassIdentifier: 
  name: Execution
  sprite: {fileID: 21300000, guid: 5ffece97327c99f4da8122b55d082dfa, type: 3}
  augmentBuilder: {fileID: 11400000, guid: 34ebe74c7c19d294f8f57e2c69544cfb, type: 2}
  resourceAugments: []
  stats: []
