%YAML 1.1
%TAG !u! tag:unity3d.com,2011:
--- !u!114 &11400000
MonoBehaviour:
  m_ObjectHideFlags: 0
  m_CorrespondingSourceObject: {fileID: 0}
  m_PrefabInternal: {fileID: 0}
  m_GameObject: {fileID: 0}
  m_Enabled: 1
  m_EditorHideFlags: 0
  m_Script: {fileID: 11500000, guid: d9a95c8fb803c9642b95793a3a706c25, type: 3}
  m_Name: Spiny
  m_EditorClassIdentifier: 
  DeveloperDescription: tough, spiked
  name: Spiny
  staticStats:
  - ModifierType: 2
    StatType: 0
    Value: 0.25
  - ModifierType: 2
    StatType: 5
    Value: 0.25
  - ModifierType: 0
    StatType: 24
    Value: 15
  statScalingPerLevel: 0
  abilities:
  - {fileID: 11400000, guid: 041f4700c2185254389ed0a37fb7f08c, type: 2}
  triggeredActions: []
  talents:
  - left: {fileID: 0}
    right: {fileID: 0}
  bonusLootMods: 0
  bonusLootLevel: 0
  icon: {fileID: 0}
  identifyChance: 0
  unitResourceAugments: []
  lootValue: {fileID: 11400000, guid: 2ae65e44ced7cd140ab8130452fd4400, type: 2}
