%YAML 1.1
%TAG !u! tag:unity3d.com,2011:
--- !u!114 &11400000
MonoBehaviour:
  m_ObjectHideFlags: 0
  m_CorrespondingSourceObject: {fileID: 0}
  m_PrefabInternal: {fileID: 0}
  m_GameObject: {fileID: 0}
  m_Enabled: 1
  m_EditorHideFlags: 0
  m_Script: {fileID: 11500000, guid: e4d2a9353f8fce846a713f92c1f0ffb6, type: 3}
  m_Name: Decimate
  m_EditorClassIdentifier: 
  sprite: {fileID: 21300000, guid: 32ffbc3200735934ea92178e9bfdb501, type: 3}
  spriteManager: {fileID: 11400000, guid: 5fe216c4403efbd4598084a395e6c837, type: 2}
  spriteIndex: 83
  damages: []
  buffs: []
  debuffs:
  - {fileID: 11400000, guid: 0489d517f0db2c34ba037976fd6c9ca2, type: 2}
  name: Decimate
  proficiencyType: 5
  conditions: []
  period: 25
  damageFactor: 0
  selfDamages: []
  instanceStats: []
  unitResources: []
  purgeCount: 0
  cleanseCount: 0
