%YAML 1.1
%TAG !u! tag:unity3d.com,2011:
--- !u!114 &11400000
MonoBehaviour:
  m_ObjectHideFlags: 0
  m_CorrespondingSourceObject: {fileID: 0}
  m_PrefabInternal: {fileID: 0}
  m_GameObject: {fileID: 0}
  m_Enabled: 1
  m_EditorHideFlags: 0
  m_Script: {fileID: 11500000, guid: b128b01e42a8dc444a894ae7966028a6, type: 3}
  m_Name: _Double
  m_EditorClassIdentifier: 
  actionConditions: []
  period: 5
  buffs: []
  debuffs: []
  damages: []
  selfDamages: []
  instanceStats: []
  unitResources:
  - resource:
      type: 6
      value: 1
    actionCondition:
      target: 0
      comparison: 0
      type: 0
      value: 0
  damageFactor: 0
  purgeCount: 0
  cleanseCount: 0
