%YAML 1.1
%TAG !u! tag:unity3d.com,2011:
--- !u!114 &11400000
MonoBehaviour:
  m_ObjectHideFlags: 0
  m_CorrespondingSourceObject: {fileID: 0}
  m_PrefabInternal: {fileID: 0}
  m_GameObject: {fileID: 0}
  m_Enabled: 1
  m_EditorHideFlags: 0
  m_Script: {fileID: 11500000, guid: 132f10f97475e1949be71a8a949dbf57, type: 3}
  m_Name: _Demonstrate
  m_EditorClassIdentifier: 
  name: Demonstrate
  leftSprite: {fileID: 21300000, guid: 28a1cda17fb0443499f41ba0d821eef6, type: 3}
  rightSprite: {fileID: 21300000, guid: 95c3886a4b7439c4eaded5d893562160, type: 3}
  timedAbility: {fileID: 11400000, guid: de074cf6b46f8f94b9b7ece77546dd10, type: 2}
  triggeredAbility: {fileID: 0}
  options:
  - {fileID: 11400000, guid: 37c7b771446408a4d8f484d1f7d06f68, type: 2}
  - {fileID: 11400000, guid: aa9613ac550531b4dba7fc1a4aeb8def, type: 2}
  - {fileID: 11400000, guid: 11724869b442c5746b6b002ead8fdf4f, type: 2}
  resourceAugments: []
  stats: []
