%YAML 1.1
%TAG !u! tag:unity3d.com,2011:
--- !u!114 &11400000
MonoBehaviour:
  m_ObjectHideFlags: 0
  m_CorrespondingSourceObject: {fileID: 0}
  m_PrefabInternal: {fileID: 0}
  m_GameObject: {fileID: 0}
  m_Enabled: 1
  m_EditorHideFlags: 0
  m_Script: {fileID: 11500000, guid: ff3581a22e4d5594da0f2bcaf581bf5a, type: 3}
  m_Name: Demonstrate
  m_EditorClassIdentifier: 
  name: Demonstrate
  proficiencyType: 2
  sprite: {fileID: 21300000, guid: 28a1cda17fb0443499f41ba0d821eef6, type: 3}
  spriteManager: {fileID: 11400000, guid: 5fe216c4403efbd4598084a395e6c837, type: 2}
  spriteIndex: 78
  damageFactor: 0
  conditions: []
  damages:
  - type: 0
    result: 0
    damageFactor: 1.2
    value: 6
  selfDamages: []
  buffs: []
  debuffs: []
  instanceStats: []
  unitResources:
  - resource:
      type: 4
      value: -3
    actionCondition:
      target: 0
      comparison: 0
      type: 0
      value: 0
  - resource:
      type: 5
      value: 1
    actionCondition:
      target: 0
      comparison: 0
      type: 0
      value: 0
  purgeCount: 0
  cleanseCount: 0
  period: 15
