%YAML 1.1
%TAG !u! tag:unity3d.com,2011:
--- !u!114 &11400000
MonoBehaviour:
  m_ObjectHideFlags: 0
  m_CorrespondingSourceObject: {fileID: 0}
  m_PrefabInternal: {fileID: 0}
  m_GameObject: {fileID: 0}
  m_Enabled: 1
  m_EditorHideFlags: 0
  m_Script: {fileID: 11500000, guid: bddfe7ab9296d0e42a7c9d1e95437675, type: 3}
  m_Name: PrimaticFlash
  m_EditorClassIdentifier: 
  name: Prismatic Flash
  icon: {fileID: 21300000, guid: f1638d36daaf5bf4ba7aab0508020848, type: 3}
  stats: []
  ability: {fileID: 11400000, guid: fd581bcb6fe31554d88daf055cb9ae2a, type: 2}
