%YAML 1.1
%TAG !u! tag:unity3d.com,2011:
--- !u!114 &11400000
MonoBehaviour:
  m_ObjectHideFlags: 0
  m_CorrespondingSourceObject: {fileID: 0}
  m_PrefabInternal: {fileID: 0}
  m_GameObject: {fileID: 0}
  m_Enabled: 1
  m_EditorHideFlags: 0
  m_Script: {fileID: 11500000, guid: 4b76adc36f3c34c46b251e47b7b9e91d, type: 3}
  m_Name: Head
  m_EditorClassIdentifier: 
  name: Mask
  spriteManager: {fileID: 11400000, guid: 5fe216c4403efbd4598084a395e6c837, type: 2}
  rarity: 0
  staticStats:
  - ModifierType: 1
    StatType: 18
    Value: 0.1
  - ModifierType: 0
    StatType: 5
    Value: 8
  - ModifierType: 0
    StatType: 19
    Value: 4
  scalingStats: []
  abilities: []
  triggeredActions: []
  sprite: {fileID: 21300000, guid: 79d0bafcc8d293e4bac7d384d46bed8e, type: 3}
  spriteIndex: 59
  slot: 0
  recipeCost: {fileID: 11400000, guid: e9ad2898a63b7804f9af279bf57ecbca, type: 2}
