%YAML 1.1
%TAG !u! tag:unity3d.com,2011:
--- !u!114 &11400000
MonoBehaviour:
  m_ObjectHideFlags: 0
  m_CorrespondingSourceObject: {fileID: 0}
  m_PrefabInternal: {fileID: 0}
  m_GameObject: {fileID: 0}
  m_Enabled: 1
  m_EditorHideFlags: 0
  m_Script: {fileID: 11500000, guid: 4b76adc36f3c34c46b251e47b7b9e91d, type: 3}
  m_Name: Feet
  m_EditorClassIdentifier: 
  name: Boots
  spriteManager: {fileID: 11400000, guid: 5fe216c4403efbd4598084a395e6c837, type: 2}
  rarity: 3
  staticStats:
  - ModifierType: 0
    StatType: 5
    Value: 4
  scalingStats: []
  abilities: []
  triggeredActions: []
  sprite: {fileID: 21300000, guid: 126ea4417925e0e438491e6b73fea540, type: 3}
  spriteIndex: 52
  slot: 2
  recipeCost: {fileID: 11400000, guid: bb6575de78f834942b2dbe7c03f7a8aa, type: 2}
