%YAML 1.1
%TAG !u! tag:unity3d.com,2011:
--- !u!114 &11400000
MonoBehaviour:
  m_ObjectHideFlags: 0
  m_CorrespondingSourceObject: {fileID: 0}
  m_PrefabInternal: {fileID: 0}
  m_GameObject: {fileID: 0}
  m_Enabled: 1
  m_EditorHideFlags: 0
  m_Script: {fileID: 11500000, guid: ce3fad34db9c8964399abc9a0fa335ff, type: 3}
  m_Name: Regret
  m_EditorClassIdentifier: 
  name: Regret
  spriteManager: {fileID: 11400000, guid: 5fe216c4403efbd4598084a395e6c837, type: 2}
  spriteIndex: 84
  sprite: {fileID: 21300000, guid: d255cf3de40ffdc43a175fbeca9bc0a3, type: 3}
  duration: 10
  period: 2
  damageFactor: 0
  periodicDamages:
  - type: 7
    result: 0
    damageFactor: 0.15
    value: 2
  finalDamages: []
  stats: []
