%YAML 1.1
%TAG !u! tag:unity3d.com,2011:
--- !u!114 &11400000
MonoBehaviour:
  m_ObjectHideFlags: 0
  m_CorrespondingSourceObject: {fileID: 0}
  m_PrefabInternal: {fileID: 0}
  m_GameObject: {fileID: 0}
  m_Enabled: 1
  m_EditorHideFlags: 0
  m_Script: {fileID: 11500000, guid: bddfe7ab9296d0e42a7c9d1e95437675, type: 3}
  m_Name: Flourish
  m_EditorClassIdentifier: 
  name: Flourish
  icon: {fileID: 21300000, guid: c8ca70418aa48cb4b95b6d598948521a, type: 3}
  stats: []
  ability: {fileID: 11400000, guid: 63f5121ec52980b428da18f4423ffdf6, type: 2}
