%YAML 1.1
%TAG !u! tag:unity3d.com,2011:
--- !u!114 &11400000
MonoBehaviour:
  m_ObjectHideFlags: 0
  m_CorrespondingSourceObject: {fileID: 0}
  m_PrefabInternal: {fileID: 0}
  m_GameObject: {fileID: 0}
  m_Enabled: 1
  m_EditorHideFlags: 0
  m_Script: {fileID: 11500000, guid: bddfe7ab9296d0e42a7c9d1e95437675, type: 3}
  m_Name: SpiderCalling
  m_EditorClassIdentifier: 
  name: Spider Calling
  icon: {fileID: 21300000, guid: 9399d37f80a679b478f85356a79e7258, type: 3}
  stats: []
  ability: {fileID: 11400000, guid: 2a394b161dd10954dacc96afe6b2be85, type: 2}
