%YAML 1.1
%TAG !u! tag:unity3d.com,2011:
--- !u!114 &11400000
MonoBehaviour:
  m_ObjectHideFlags: 0
  m_CorrespondingSourceObject: {fileID: 0}
  m_PrefabInternal: {fileID: 0}
  m_GameObject: {fileID: 0}
  m_Enabled: 1
  m_EditorHideFlags: 0
  m_Script: {fileID: 11500000, guid: 0c160bc2729196148800148187854b1b, type: 3}
  m_Name: lifeblood
  m_EditorClassIdentifier: 
  name: Lifeblood
  spriteManager: {fileID: 11400000, guid: 5fe216c4403efbd4598084a395e6c837, type: 2}
  spriteIndex: 87
  sprite: {fileID: 21300000, guid: c8ca70418aa48cb4b95b6d598948521a, type: 3}
  duration: 15
  period: 3
  damageFactor: 0
  periodicDamages:
  - type: 3
    result: 0
    damageFactor: 0.25
    value: 2
  finalDamages: []
  stats: []
