%YAML 1.1
%TAG !u! tag:unity3d.com,2011:
--- !u!114 &11400000
MonoBehaviour:
  m_ObjectHideFlags: 0
  m_CorrespondingSourceObject: {fileID: 0}
  m_PrefabInternal: {fileID: 0}
  m_GameObject: {fileID: 0}
  m_Enabled: 1
  m_EditorHideFlags: 0
  m_Script: {fileID: 11500000, guid: 1aac73ca0703c904d8a5d3271e8345fa, type: 3}
  m_Name: LockedChest
  m_EditorClassIdentifier: 
  encounterName: Locked Chest
  type: 1
  triggerChance: 0.1
  lootRollManager:
    level: 0
    difficulty: 0
    designLevel:
      min: 0
      max: 0
    divinityLevel:
      min: 0
      max: 0
    qualityLevel:
      min: 0
      max: 0
    enchantmentLevel:
      min: 0
      max: 0
    materialChance:
      min: 0
      max: 0
    enchantmentChance:
      min: 0
      max: 0
  lootProfile: {fileID: 11400000, guid: 290c2e5a92aaf224facebedbc711be05, type: 2}
  lootGenerator: {fileID: 11400000, guid: 8cb2e72f2511c3d4b926bf3dc8472578, type: 2}
  buff: {fileID: 0}
  debuff: {fileID: 0}
  damage: []
  effectScaling: 0
  checkScaling: 0.01
  duration: 15
  icon: {fileID: 21300000, guid: ee2f7a5cf1f700647875b47b3307e354, type: 3}
