%YAML 1.1
%TAG !u! tag:unity3d.com,2011:
--- !u!114 &11400000
MonoBehaviour:
  m_ObjectHideFlags: 0
  m_CorrespondingSourceObject: {fileID: 0}
  m_PrefabInternal: {fileID: 0}
  m_GameObject: {fileID: 0}
  m_Enabled: 1
  m_EditorHideFlags: 0
  m_Script: {fileID: 11500000, guid: dfee2b7e609ced244972e938e7722a17, type: 3}
  m_Name: __pitTrap
  m_EditorClassIdentifier: 
  name: Pit Trap
  sprite: {fileID: 21300000, guid: fccff7edd5cefde4d9742e2e3d8b2532, type: 3}
  augmentBuilder: {fileID: 11400000, guid: 60f763004410bc240a075e42cdfdd945, type: 2}
  resourceAugments: []
  stats: []
