%YAML 1.1
%TAG !u! tag:unity3d.com,2011:
--- !u!114 &11400000
MonoBehaviour:
  m_ObjectHideFlags: 0
  m_CorrespondingSourceObject: {fileID: 0}
  m_PrefabInternal: {fileID: 0}
  m_GameObject: {fileID: 0}
  m_Enabled: 1
  m_EditorHideFlags: 0
  m_Script: {fileID: 11500000, guid: 43682a053374c554da6cc9be4ff47e17, type: 3}
  m_Name: leather
  m_EditorClassIdentifier: 
  lootModifierDictionary: {fileID: 11400000, guid: 4219fcc1f0a8747438ca6431c0cb84ca,
    type: 2}
  archetypeProfile: {fileID: 11400000, guid: 8e729254d2713f44c891e63942eded93, type: 2}
  statEQ: {fileID: 11400000, guid: b9976fa2b4a6b3444bf1ae3f219eb06e, type: 2}
  generatorStats:
  - modifier: 0
    stat: 0
    frequency: 1
  - modifier: 1
    stat: 5
    frequency: 1
  - modifier: 0
    stat: 7
    frequency: 0.67
  - modifier: 0
    stat: 9
    frequency: 0.67
  - modifier: 0
    stat: 13
    frequency: 0.33
  - modifier: 0
    stat: 15
    frequency: 0.33
  - modifier: 1
    stat: 4
    frequency: 0.5
  - modifier: 0
    stat: 1
    frequency: 0.5
  - modifier: 0
    stat: 2
    frequency: 0.5
  - modifier: 1
    stat: 6
    frequency: 0.33
  - modifier: 1
    stat: 8
    frequency: 0.33
  - modifier: 0
    stat: 37
    frequency: 0.17
  - modifier: 0
    stat: 26
    frequency: 0.05
  itemValueCalculater: {fileID: 11400000, guid: f3f1a9af08d47a3409564b549d79e653,
    type: 2}
