%YAML 1.1
%TAG !u! tag:unity3d.com,2011:
--- !u!1001 &100100000
Prefab:
  m_ObjectHideFlags: 1
  serializedVersion: 2
  m_Modification:
    m_TransformParent: {fileID: 0}
    m_Modifications: []
    m_RemovedComponents: []
  m_SourcePrefab: {fileID: 0}
  m_RootGameObject: {fileID: 1224899921661926}
  m_IsPrefabAsset: 1
--- !u!1 &1224899921661926
GameObject:
  m_ObjectHideFlags: 0
  m_CorrespondingSourceObject: {fileID: 0}
  m_PrefabInternal: {fileID: 100100000}
  serializedVersion: 6
  m_Component:
  - component: {fileID: 224990678189438156}
  - component: {fileID: 114112468941725130}
  m_Layer: 5
  m_Name: FailWobble
  m_TagString: Untagged
  m_Icon: {fileID: 0}
  m_NavMeshLayer: 0
  m_StaticEditorFlags: 0
  m_IsActive: 1
--- !u!114 &114112468941725130
MonoBehaviour:
  m_ObjectHideFlags: 1
  m_CorrespondingSourceObject: {fileID: 0}
  m_PrefabInternal: {fileID: 100100000}
  m_GameObject: {fileID: 1224899921661926}
  m_Enabled: 1
  m_EditorHideFlags: 0
  m_Script: {fileID: 11500000, guid: fcb86c835da33f8428c5bd9e618ee745, type: 3}
  m_Name: 
  m_EditorClassIdentifier: 
  rotation:
    UseConstant: 1
    ConstantValue: -9
    Variable: {fileID: 0}
  yDelta:
    UseConstant: 1
    ConstantValue: -8
    Variable: {fileID: 0}
  duration:
    UseConstant: 1
    ConstantValue: 0.5
    Variable: {fileID: 0}
  firstWobbleRatio:
    UseConstant: 1
    ConstantValue: 0.35
    Variable: {fileID: 0}
  secondWobbleRatio:
    UseConstant: 1
    ConstantValue: 0.5
    Variable: {fileID: 0}
  firstEase:
    UseConstant: 1
    ConstantValue: 8
    Variable: {fileID: 0}
  secondEase:
    UseConstant: 1
    ConstantValue: 9
    Variable: {fileID: 0}
  resetEase:
    UseConstant: 1
    ConstantValue: 9
    Variable: {fileID: 0}
  upEase:
    UseConstant: 1
    ConstantValue: 15
    Variable: {fileID: 0}
  downEase:
    UseConstant: 1
    ConstantValue: 10
    Variable: {fileID: 0}
--- !u!224 &224990678189438156
RectTransform:
  m_ObjectHideFlags: 1
  m_CorrespondingSourceObject: {fileID: 0}
  m_PrefabInternal: {fileID: 100100000}
  m_GameObject: {fileID: 1224899921661926}
  m_LocalRotation: {x: 0, y: 0, z: 0, w: 1}
  m_LocalPosition: {x: 0, y: 0, z: 0}
  m_LocalScale: {x: 1, y: 1, z: 1}
  m_Children: []
  m_Father: {fileID: 0}
  m_RootOrder: 0
  m_LocalEulerAnglesHint: {x: 0, y: 0, z: 0}
  m_AnchorMin: {x: 0, y: 0}
  m_AnchorMax: {x: 1, y: 1}
  m_AnchoredPosition: {x: 0, y: 0}
  m_SizeDelta: {x: 0, y: 0}
  m_Pivot: {x: 0.5, y: 0.5}
