%YAML 1.1
%TAG !u! tag:unity3d.com,2011:
--- !u!114 &11400000
MonoBehaviour:
  m_ObjectHideFlags: 0
  m_CorrespondingSourceObject: {fileID: 0}
  m_PrefabInternal: {fileID: 0}
  m_GameObject: {fileID: 0}
  m_Enabled: 1
  m_EditorHideFlags: 0
  m_Script: {fileID: 11500000, guid: 919fb9dbbd3fbcb4e9b47cb3d5166307, type: 3}
  m_Name: leather
  m_EditorClassIdentifier: 
  archetypes:
  - equipmentArchetype: {fileID: 11400000, guid: 5c143d58b1d723c40ad979e7c70e0417,
      type: 2}
    frequency: 1
  - equipmentArchetype: {fileID: 11400000, guid: e2d3ee943d684be489acfb9a7f866caa,
      type: 2}
    frequency: 1
  - equipmentArchetype: {fileID: 11400000, guid: f7ca516f650f5084bb4b11da3a4d542c,
      type: 2}
    frequency: 1
  - equipmentArchetype: {fileID: 11400000, guid: aa0a57d5193dc8748a6002aeb37dca2b,
      type: 2}
    frequency: 1
