%YAML 1.1
%TAG !u! tag:unity3d.com,2011:
--- !u!114 &11400000
MonoBehaviour:
  m_ObjectHideFlags: 0
  m_CorrespondingSourceObject: {fileID: 0}
  m_PrefabInternal: {fileID: 0}
  m_GameObject: {fileID: 0}
  m_Enabled: 1
  m_EditorHideFlags: 0
  m_Script: {fileID: 11500000, guid: dfee2b7e609ced244972e938e7722a17, type: 3}
  m_Name: _Option 2
  m_EditorClassIdentifier: 
  name: Consuming
  sprite: {fileID: 21300000, guid: 4045dd136508af04ba9c14ce1e9809a7, type: 3}
  augmentBuilder: {fileID: 11400000, guid: d499f52628743c5458c08c2592cd3c31, type: 2}
  resourceAugments: []
  stats: []
