%YAML 1.1
%TAG !u! tag:unity3d.com,2011:
--- !u!114 &11400000
MonoBehaviour:
  m_ObjectHideFlags: 0
  m_CorrespondingSourceObject: {fileID: 0}
  m_PrefabInternal: {fileID: 0}
  m_GameObject: {fileID: 0}
  m_Enabled: 1
  m_EditorHideFlags: 0
  m_Script: {fileID: 11500000, guid: 132f10f97475e1949be71a8a949dbf57, type: 3}
  m_Name: __sidestep
  m_EditorClassIdentifier: 
  name: Sidestep
  leftSprite: {fileID: 21300000, guid: 1a21c34faa9f70145ab6c4c4bdbd897c, type: 3}
  rightSprite: {fileID: 0}
  timedAbility: {fileID: 0}
  triggeredAbility: {fileID: 11400000, guid: 15b8a01e1d2b0334fbd83df0b6182b95, type: 2}
  options:
  - {fileID: 11400000, guid: 881c437cb52c49f4b9751ec4c6fdc2a3, type: 2}
  - {fileID: 11400000, guid: 1b2d10890c887ce4d86b6d20485e1308, type: 2}
  - {fileID: 11400000, guid: cf6d3dce30dbcb1429b6e22c1410adf0, type: 2}
  resourceAugments: []
  stats: []
