%YAML 1.1
%TAG !u! tag:unity3d.com,2011:
--- !u!114 &11400000
MonoBehaviour:
  m_ObjectHideFlags: 0
  m_CorrespondingSourceObject: {fileID: 0}
  m_PrefabInternal: {fileID: 0}
  m_GameObject: {fileID: 0}
  m_Enabled: 1
  m_EditorHideFlags: 0
  m_Script: {fileID: 11500000, guid: 8b47fc76a4c9e7c42b0a035b6cb9c2fa, type: 3}
  m_Name: _sidestep
  m_EditorClassIdentifier: 
  name: Sidestep
  proficiencyType: 1
  sprite: {fileID: 21300000, guid: 1a21c34faa9f70145ab6c4c4bdbd897c, type: 3}
  spriteManager: {fileID: 11400000, guid: 5fe216c4403efbd4598084a395e6c837, type: 2}
  spriteIndex: 96
  damageFactor: 0
  conditions: []
  damages: []
  selfDamages: []
  buffs:
  - {fileID: 11400000, guid: f5554b1edb2b2a04f9bfa184b47b293a, type: 2}
  debuffs: []
  instanceStats: []
  unitResources: []
  purgeCount: 0
  cleanseCount: 0
  procTarget: 0
  procTrigger: 0
  procChance: 1
