%YAML 1.1
%TAG !u! tag:unity3d.com,2011:
--- !u!114 &11400000
MonoBehaviour:
  m_ObjectHideFlags: 0
  m_CorrespondingSourceObject: {fileID: 0}
  m_PrefabInternal: {fileID: 0}
  m_GameObject: {fileID: 0}
  m_Enabled: 1
  m_EditorHideFlags: 0
  m_Script: {fileID: 11500000, guid: 8b47fc76a4c9e7c42b0a035b6cb9c2fa, type: 3}
  m_Name: _retaliate
  m_EditorClassIdentifier: 
  name: Retaliate
  proficiencyType: 3
  sprite: {fileID: 21300000, guid: 27ea94480c48a244ebfe9e0ff83e7ff5, type: 3}
  spriteManager: {fileID: 11400000, guid: 5fe216c4403efbd4598084a395e6c837, type: 2}
  spriteIndex: 79
  damageFactor: 0
  conditions: []
  damages:
  - type: 0
    result: 0
    damageFactor: 0.1
    value: 3
  selfDamages: []
  buffs: []
  debuffs: []
  instanceStats: []
  unitResources: []
  purgeCount: 0
  cleanseCount: 0
  procTarget: 0
  procTrigger: 0
  procChance: 1
