%YAML 1.1
%TAG !u! tag:unity3d.com,2011:
--- !u!114 &11400000
MonoBehaviour:
  m_ObjectHideFlags: 0
  m_CorrespondingSourceObject: {fileID: 0}
  m_PrefabInternal: {fileID: 0}
  m_GameObject: {fileID: 0}
  m_Enabled: 1
  m_EditorHideFlags: 0
  m_Script: {fileID: 11500000, guid: 919fb9dbbd3fbcb4e9b47cb3d5166307, type: 3}
  m_Name: Named
  m_EditorClassIdentifier: 
  archetypes:
  - equipmentArchetype: {fileID: 11400000, guid: 57c98b0ac5e222248a1ebc5886f0a30f,
      type: 2}
    frequency: 0.25
  - equipmentArchetype: {fileID: 11400000, guid: aca6667418d9eb64f9b402732809f06e,
      type: 2}
    frequency: 0.75
  - equipmentArchetype: {fileID: 11400000, guid: ab72fae5e6893a74884aeb8b844fba79,
      type: 2}
    frequency: 0.35
  - equipmentArchetype: {fileID: 11400000, guid: ab661a926ea2b414f8593a6511b59db2,
      type: 2}
    frequency: 1
  - equipmentArchetype: {fileID: 11400000, guid: 5ac6f3fd498576249b18abff682dba7d,
      type: 2}
    frequency: 0.75
