%YAML 1.1
%TAG !u! tag:unity3d.com,2011:
--- !u!114 &11400000
MonoBehaviour:
  m_ObjectHideFlags: 0
  m_CorrespondingSourceObject: {fileID: 0}
  m_PrefabInternal: {fileID: 0}
  m_GameObject: {fileID: 0}
  m_Enabled: 1
  m_EditorHideFlags: 0
  m_Script: {fileID: 11500000, guid: 919fb9dbbd3fbcb4e9b47cb3d5166307, type: 3}
  m_Name: _RogueEquipmentProfile
  m_EditorClassIdentifier: 
  archetypes:
  - equipmentArchetype: {fileID: 11400000, guid: ab661a926ea2b414f8593a6511b59db2,
      type: 2}
    frequency: 1
  - equipmentArchetype: {fileID: 11400000, guid: 3913c8db886eef946bdbb7ee1d6dd2e4,
      type: 2}
    frequency: 1
  - equipmentArchetype: {fileID: 11400000, guid: 4c262d6ca90dca848b7492ef5229289a,
      type: 2}
    frequency: 1
