%YAML 1.1
%TAG !u! tag:unity3d.com,2011:
--- !u!114 &11400000
MonoBehaviour:
  m_ObjectHideFlags: 0
  m_CorrespondingSourceObject: {fileID: 0}
  m_PrefabInternal: {fileID: 0}
  m_GameObject: {fileID: 0}
  m_Enabled: 1
  m_EditorHideFlags: 0
  m_Script: {fileID: 11500000, guid: dfee2b7e609ced244972e938e7722a17, type: 3}
  m_Name: __mirror
  m_EditorClassIdentifier: 
  name: Mirror
  sprite: {fileID: 21300000, guid: 42b77a0646cd82e47a7092adb353f1ef, type: 3}
  augmentBuilder: {fileID: 11400000, guid: b681d6ab2701ea64c9031f0158a05049, type: 2}
  resourceAugments: []
  stats: []
