%YAML 1.1
%TAG !u! tag:unity3d.com,2011:
--- !u!114 &11400000
MonoBehaviour:
  m_ObjectHideFlags: 0
  m_CorrespondingSourceObject: {fileID: 0}
  m_PrefabInternal: {fileID: 0}
  m_GameObject: {fileID: 0}
  m_Enabled: 1
  m_EditorHideFlags: 0
  m_Script: {fileID: 11500000, guid: 132f10f97475e1949be71a8a949dbf57, type: 3}
  m_Name: __merlilyTea
  m_EditorClassIdentifier: 
  name: Merlily Tea
  leftSprite: {fileID: 21300000, guid: e594348f7016dd643b031dc8d5fbed87, type: 3}
  rightSprite: {fileID: 21300000, guid: c8ca70418aa48cb4b95b6d598948521a, type: 3}
  timedAbility: {fileID: 11400000, guid: 90cfd0381bfeba046868cf876a3bee9f, type: 2}
  triggeredAbility: {fileID: 0}
  options:
  - {fileID: 11400000, guid: 5df420efb7ba55842bddebb1f192a415, type: 2}
  - {fileID: 11400000, guid: 8f5814b38a6f1e14985a6e496439a784, type: 2}
  - {fileID: 11400000, guid: 10935d5dacc375449af17c188a41f4e6, type: 2}
  resourceAugments: []
  stats: []
