%YAML 1.1
%TAG !u! tag:unity3d.com,2011:
--- !u!114 &11400000
MonoBehaviour:
  m_ObjectHideFlags: 0
  m_CorrespondingSourceObject: {fileID: 0}
  m_PrefabInternal: {fileID: 0}
  m_GameObject: {fileID: 0}
  m_Enabled: 1
  m_EditorHideFlags: 0
  m_Script: {fileID: 11500000, guid: dfee2b7e609ced244972e938e7722a17, type: 3}
  m_Name: __piercing
  m_EditorClassIdentifier: 
  name: Piercing
  sprite: {fileID: 21300000, guid: c2876527397ec784e9bee0500140f722, type: 3}
  augmentBuilder: {fileID: 11400000, guid: 819fc730445e2f843b6d6cf70b29cb43, type: 2}
  resourceAugments: []
  stats: []
