%YAML 1.1
%TAG !u! tag:unity3d.com,2011:
--- !u!114 &11400000
MonoBehaviour:
  m_ObjectHideFlags: 0
  m_CorrespondingSourceObject: {fileID: 0}
  m_PrefabInternal: {fileID: 0}
  m_GameObject: {fileID: 0}
  m_Enabled: 1
  m_EditorHideFlags: 0
  m_Script: {fileID: 11500000, guid: dadc37c5b106a6b4a9620c5842664e39, type: 3}
  m_Name: BasicEQ
  m_EditorClassIdentifier: 
  stats:
  - type: 0
    value: 7
  - type: 1
    value: 3
  - type: 2
    value: 3
  - type: 3
    value: 2
  - type: 4
    value: 1
  - type: 5
    value: 3
  - type: 6
    value: 1
  - type: 7
    value: 4
  - type: 8
    value: 1
  - type: 9
    value: 4
  - type: 10
    value: 1
  - type: 11
    value: 4
  - type: 12
    value: 1
  - type: 13
    value: 4
  - type: 14
    value: 1
  - type: 15
    value: 4
  - type: 16
    value: 1
  - type: 17
    value: 4
  - type: 18
    value: 1
  - type: 19
    value: 4
  - type: 20
    value: 2
  - type: 21
    value: 2
  - type: 22
    value: 2
  - type: 23
    value: 1
  - type: 24
    value: 1
  - type: 25
    value: 1
  - type: 26
    value: 2
  - type: 27
    value: 2
  - type: 28
    value: 2
  - type: 29
    value: 3
  - type: 30
    value: 3
  - type: 31
    value: 3
  - type: 32
    value: 2
  - type: 33
    value: 2
  - type: 34
    value: 1
  - type: 35
    value: 2
  - type: 36
    value: 2
  - type: 37
    value: 3
  - type: 38
    value: 3
  - type: 39
    value: 3
  - type: 40
    value: 3
  - type: 41
    value: 3
  - type: 42
    value: 3
  - type: 43
    value: 3
  - type: 44
    value: 3
  - type: 45
    value: 2
  - type: 46
    value: 1
  - type: 47
    value: 1
  - type: 48
    value: 1
  - type: 49
    value: 1
  mods:
  - type: 0
    value: 1
  - type: 1
    value: 0.05
  - type: 2
    value: 0.05
