%YAML 1.1
%TAG !u! tag:unity3d.com,2011:
--- !u!114 &11400000
MonoBehaviour:
  m_ObjectHideFlags: 0
  m_CorrespondingSourceObject: {fileID: 0}
  m_PrefabInternal: {fileID: 0}
  m_GameObject: {fileID: 0}
  m_Enabled: 1
  m_EditorHideFlags: 0
  m_Script: {fileID: 11500000, guid: b128b01e42a8dc444a894ae7966028a6, type: 3}
  m_Name: Augment 1
  m_EditorClassIdentifier: 
  actionConditions: []
  buffs: []
  debuffs:
  - {fileID: 11400000, guid: 3a277d1f93077644daf2cec545e41e09, type: 2}
  damages: []
  selfDamages: []
  instanceStats: []
  unitResources: []
  damageFactor: 0
  purgeCount: 0
  cleanseCount: 0
