%YAML 1.1
%TAG !u! tag:unity3d.com,2011:
--- !u!114 &11400000
MonoBehaviour:
  m_ObjectHideFlags: 0
  m_CorrespondingSourceObject: {fileID: 0}
  m_PrefabInternal: {fileID: 0}
  m_GameObject: {fileID: 0}
  m_Enabled: 1
  m_EditorHideFlags: 0
  m_Script: {fileID: 11500000, guid: 132f10f97475e1949be71a8a949dbf57, type: 3}
  m_Name: __chickenStew
  m_EditorClassIdentifier: 
  name: Chicken Stew
  leftSprite: {fileID: 21300000, guid: e594348f7016dd643b031dc8d5fbed87, type: 3}
  rightSprite: {fileID: 0}
  timedAbility: {fileID: 11400000, guid: 4b6a1eafb6e7a29408ec0a7832e6c518, type: 2}
  triggeredAbility: {fileID: 0}
  options:
  - {fileID: 11400000, guid: ea367e330a7fadd4199bd158bb6c906f, type: 2}
  - {fileID: 11400000, guid: 6dd2cb9a9b249fe4a93e5285c84c7159, type: 2}
  - {fileID: 11400000, guid: fa40c38a19bb5174daa35487ebd1c26f, type: 2}
  resourceAugments: []
  stats: []
