%YAML 1.1
%TAG !u! tag:unity3d.com,2011:
--- !u!114 &11400000
MonoBehaviour:
  m_ObjectHideFlags: 0
  m_CorrespondingSourceObject: {fileID: 0}
  m_PrefabInternal: {fileID: 0}
  m_GameObject: {fileID: 0}
  m_Enabled: 1
  m_EditorHideFlags: 0
  m_Script: {fileID: 11500000, guid: 4b76adc36f3c34c46b251e47b7b9e91d, type: 3}
  m_Name: ShroudedRobes
  m_EditorClassIdentifier: 
  name: Shrouded Robes
  spriteManager: {fileID: 11400000, guid: 5fe216c4403efbd4598084a395e6c837, type: 2}
  rarity: 1
  staticStats:
  - ModifierType: 0
    StatType: 5
    Value: 15
  - ModifierType: 0
    StatType: 0
    Value: 25
  - ModifierType: 1
    StatType: 18
    Value: 0.25
  - ModifierType: 0
    StatType: 29
    Value: 12
  - ModifierType: 0
    StatType: 28
    Value: 25
  - ModifierType: 0
    StatType: 44
    Value: 35
  - ModifierType: 0
    StatType: 45
    Value: 3
  scalingStats: []
  abilities: []
  triggeredActions:
  - {fileID: 11400000, guid: 70672e2999d5a334bbeb1886af011605, type: 2}
  sprite: {fileID: 21300000, guid: a2d4fc9aa3c798846816236ebea5f4b7, type: 3}
  spriteIndex: 117
  slot: 1
  recipeCost: {fileID: 11400000, guid: e9ad2898a63b7804f9af279bf57ecbca, type: 2}
