%YAML 1.1
%TAG !u! tag:unity3d.com,2011:
--- !u!114 &11400000
MonoBehaviour:
  m_ObjectHideFlags: 0
  m_CorrespondingSourceObject: {fileID: 0}
  m_PrefabInternal: {fileID: 0}
  m_GameObject: {fileID: 0}
  m_Enabled: 1
  m_EditorHideFlags: 0
  m_Script: {fileID: 11500000, guid: 132f10f97475e1949be71a8a949dbf57, type: 3}
  m_Name: __se'thoth
  m_EditorClassIdentifier: 
  name: Se'thoth
  leftSprite: {fileID: 21300000, guid: 4045dd136508af04ba9c14ce1e9809a7, type: 3}
  rightSprite: {fileID: 21300000, guid: 42b77a0646cd82e47a7092adb353f1ef, type: 3}
  timedAbility: {fileID: 11400000, guid: 328ae7077b81d144fa87817b42d41fe9, type: 2}
  triggeredAbility: {fileID: 0}
  options:
  - {fileID: 11400000, guid: de3c4774eb8213949a1665730045e783, type: 2}
  - {fileID: 11400000, guid: 6dc055f6e6fcdbe4b941c8c9e1aea99d, type: 2}
  - {fileID: 11400000, guid: a4c31ee7b8393fe4ba468774ef7747ae, type: 2}
  resourceAugments: []
  stats:
  - ModifierType: 0
    StatType: 0
    Value: -5
