%YAML 1.1
%TAG !u! tag:unity3d.com,2011:
--- !u!114 &11400000
MonoBehaviour:
  m_ObjectHideFlags: 0
  m_CorrespondingSourceObject: {fileID: 0}
  m_PrefabInternal: {fileID: 0}
  m_GameObject: {fileID: 0}
  m_Enabled: 1
  m_EditorHideFlags: 0
  m_Script: {fileID: 11500000, guid: 132f10f97475e1949be71a8a949dbf57, type: 3}
  m_Name: _Rebuke
  m_EditorClassIdentifier: 
  name: Rebuke
  leftSprite: {fileID: 21300000, guid: 27ea94480c48a244ebfe9e0ff83e7ff5, type: 3}
  rightSprite: {fileID: 21300000, guid: 80e6dc9eaeaef05478db6dc69d13e0d0, type: 3}
  timedAbility: {fileID: 0}
  triggeredAbility: {fileID: 11400000, guid: bc11d49be6459b745bfce06e4d2616c9, type: 2}
  options:
  - {fileID: 11400000, guid: 49cd8f4a124703b4e88d5e92ce424f81, type: 2}
  - {fileID: 11400000, guid: f1e3b19be95c35d4fb72da9cbc605cff, type: 2}
  - {fileID: 11400000, guid: d7500cf2a4e2a084f9558797b97941b3, type: 2}
  resourceAugments: []
  stats: []
