%YAML 1.1
%TAG !u! tag:unity3d.com,2011:
--- !u!114 &11400000
MonoBehaviour:
  m_ObjectHideFlags: 0
  m_CorrespondingSourceObject: {fileID: 0}
  m_PrefabInternal: {fileID: 0}
  m_GameObject: {fileID: 0}
  m_Enabled: 1
  m_EditorHideFlags: 0
  m_Script: {fileID: 11500000, guid: d9a95c8fb803c9642b95793a3a706c25, type: 3}
  m_Name: Grabber
  m_EditorClassIdentifier: 
  DeveloperDescription: Swimming claw having leech
  name: Grabber
  staticStats:
  - ModifierType: 0
    StatType: 0
    Value: 45
  - ModifierType: 0
    StatType: 5
    Value: 18
  - ModifierType: 0
    StatType: 9
    Value: 15
  - ModifierType: 0
    StatType: 7
    Value: 22
  - ModifierType: 0
    StatType: 17
    Value: 12
  - ModifierType: 0
    StatType: 19
    Value: 12
  - ModifierType: 0
    StatType: 15
    Value: 12
  - ModifierType: 0
    StatType: 6
    Value: 8
  - ModifierType: 0
    StatType: 8
    Value: 6
  - ModifierType: 0
    StatType: 31
    Value: 25
  statScalingPerLevel: 0
  abilities:
  - {fileID: 11400000, guid: 82f38d05a6b705e4a800351772303034, type: 2}
  - {fileID: 11400000, guid: 2061dd6a5ffa2584180049f0516c81b8, type: 2}
  triggeredActions: []
  talents: []
  bonusLootMods: 0
  bonusLootLevel: 0
  identifyChance: 0
  unitResourceAugments: []
  lootValue: {fileID: 11400000, guid: afd85bfcbe6632744b100aeb3019d0d8, type: 2}
