%YAML 1.1
%TAG !u! tag:unity3d.com,2011:
--- !u!114 &11400000
MonoBehaviour:
  m_ObjectHideFlags: 0
  m_CorrespondingSourceObject: {fileID: 0}
  m_PrefabInternal: {fileID: 0}
  m_GameObject: {fileID: 0}
  m_Enabled: 1
  m_EditorHideFlags: 0
  m_Script: {fileID: 11500000, guid: e4d2a9353f8fce846a713f92c1f0ffb6, type: 3}
  m_Name: Spit
  m_EditorClassIdentifier: 
  name: Spit
  proficiencyType: 0
  sprite: {fileID: 21300000, guid: f1638d36daaf5bf4ba7aab0508020848, type: 3}
  spriteManager: {fileID: 11400000, guid: 5fe216c4403efbd4598084a395e6c837, type: 2}
  spriteIndex: 82
  damageFactor: 0
  conditions: []
  damages:
  - type: 1
    result: 1
    damageFactor: 0.75
    value: 5
  selfDamages: []
  buffs: []
  debuffs:
  - {fileID: 11400000, guid: 73784d93f6caa98489e9031ca77a959c, type: 2}
  - {fileID: 11400000, guid: af27190dde259e14d9cca4fd2b3db849, type: 2}
  instanceStats: []
  unitResources: []
  purgeCount: 0
  cleanseCount: 0
  period: 8
