%YAML 1.1
%TAG !u! tag:unity3d.com,2011:
--- !u!114 &11400000
MonoBehaviour:
  m_ObjectHideFlags: 0
  m_CorrespondingSourceObject: {fileID: 0}
  m_PrefabInternal: {fileID: 0}
  m_GameObject: {fileID: 0}
  m_Enabled: 1
  m_EditorHideFlags: 0
  m_Script: {fileID: 11500000, guid: dfee2b7e609ced244972e938e7722a17, type: 3}
  m_Name: _Option
  m_EditorClassIdentifier: 
  name: Quality
  sprite: {fileID: 21300000, guid: c8ca70418aa48cb4b95b6d598948521a, type: 3}
  augmentBuilder: {fileID: 11400000, guid: 406f4ca7c14f8424783d2d5cb8788729, type: 2}
  resourceAugments: []
  stats: []
