%YAML 1.1
%TAG !u! tag:unity3d.com,2011:
--- !u!114 &11400000
MonoBehaviour:
  m_ObjectHideFlags: 0
  m_CorrespondingSourceObject: {fileID: 0}
  m_PrefabInternal: {fileID: 0}
  m_GameObject: {fileID: 0}
  m_Enabled: 1
  m_EditorHideFlags: 0
  m_Script: {fileID: 11500000, guid: 919fb9dbbd3fbcb4e9b47cb3d5166307, type: 3}
  m_Name: Named
  m_EditorClassIdentifier: 
  archetypes:
  - equipmentArchetype: {fileID: 11400000, guid: 075e4faf912bc3e4c8bc488e63ed2027,
      type: 2}
    frequency: 0.75
  - equipmentArchetype: {fileID: 11400000, guid: 573971106715d5444983a177dddecc9a,
      type: 2}
    frequency: 0.5
  - equipmentArchetype: {fileID: 11400000, guid: 4c262d6ca90dca848b7492ef5229289a,
      type: 2}
    frequency: 0.5
  - equipmentArchetype: {fileID: 11400000, guid: 6cfb9f015d849b8408a3ebd9e094870e,
      type: 2}
    frequency: 0.5
  - equipmentArchetype: {fileID: 11400000, guid: 8f89bd885f2db2c4591ae5a74fcb2f08,
      type: 2}
    frequency: 1
