%YAML 1.1
%TAG !u! tag:unity3d.com,2011:
--- !u!114 &11400000
MonoBehaviour:
  m_ObjectHideFlags: 0
  m_CorrespondingSourceObject: {fileID: 0}
  m_PrefabInternal: {fileID: 0}
  m_GameObject: {fileID: 0}
  m_Enabled: 1
  m_EditorHideFlags: 0
  m_Script: {fileID: 11500000, guid: 132f10f97475e1949be71a8a949dbf57, type: 3}
  m_Name: _RallyingCry
  m_EditorClassIdentifier: 
  name: Rallying Cry
  leftSprite: {fileID: 21300000, guid: e594348f7016dd643b031dc8d5fbed87, type: 3}
  rightSprite: {fileID: 21300000, guid: 80e6dc9eaeaef05478db6dc69d13e0d0, type: 3}
  timedAbility: {fileID: 11400000, guid: 1659e44ca0e05a1429898738a70297dd, type: 2}
  triggeredAbility: {fileID: 0}
  options:
  - {fileID: 11400000, guid: 398f6da3b45d8c2459608b023cbb2755, type: 2}
  - {fileID: 11400000, guid: 645acc81586149f4f8b4d7a531afce90, type: 2}
  - {fileID: 11400000, guid: 57c28f6b86b2f6a49bd318802cfe00b2, type: 2}
  resourceAugments: []
  stats: []
