%YAML 1.1
%TAG !u! tag:unity3d.com,2011:
--- !u!114 &11400000
MonoBehaviour:
  m_ObjectHideFlags: 0
  m_CorrespondingSourceObject: {fileID: 0}
  m_PrefabInternal: {fileID: 0}
  m_GameObject: {fileID: 0}
  m_Enabled: 1
  m_EditorHideFlags: 0
  m_Script: {fileID: 11500000, guid: 132f10f97475e1949be71a8a949dbf57, type: 3}
  m_Name: __daggerflick
  m_EditorClassIdentifier: 
  name: Daggerflick
  leftSprite: {fileID: 21300000, guid: 28a1cda17fb0443499f41ba0d821eef6, type: 3}
  rightSprite: {fileID: 21300000, guid: fccff7edd5cefde4d9742e2e3d8b2532, type: 3}
  timedAbility: {fileID: 11400000, guid: f6946eac7b266cb49a528239faf20b84, type: 2}
  triggeredAbility: {fileID: 0}
  options:
  - {fileID: 11400000, guid: c7d74ebbab1147145b562fd434bde499, type: 2}
  - {fileID: 11400000, guid: c753c6c983c0aa844b79bfb50fb240d3, type: 2}
  - {fileID: 11400000, guid: 2798feace1348014588c795108b0c32c, type: 2}
  resourceAugments: []
  stats: []
