%YAML 1.1
%TAG !u! tag:unity3d.com,2011:
--- !u!114 &11400000
MonoBehaviour:
  m_ObjectHideFlags: 0
  m_CorrespondingSourceObject: {fileID: 0}
  m_PrefabInternal: {fileID: 0}
  m_GameObject: {fileID: 0}
  m_Enabled: 1
  m_EditorHideFlags: 0
  m_Script: {fileID: 11500000, guid: e4d2a9353f8fce846a713f92c1f0ffb6, type: 3}
  m_Name: InvokeArmor
  m_EditorClassIdentifier: 
  sprite: {fileID: 21300000, guid: f1638d36daaf5bf4ba7aab0508020848, type: 3}
  spriteManager: {fileID: 11400000, guid: 5fe216c4403efbd4598084a395e6c837, type: 2}
  spriteIndex: 82
  damages: []
  buffs:
  - {fileID: 11400000, guid: 2d6d626d74851674993bd72783a76344, type: 2}
  debuffs: []
  name: Invoke Armor
  proficiencyType: 0
  conditions: []
  period: 75
  damageFactor: 0
  selfDamages: []
  instanceStats: []
  unitResources: []
  purgeCount: 0
  cleanseCount: 0
