%YAML 1.1
%TAG !u! tag:unity3d.com,2011:
--- !u!114 &11400000
MonoBehaviour:
  m_ObjectHideFlags: 0
  m_CorrespondingSourceObject: {fileID: 0}
  m_PrefabInternal: {fileID: 0}
  m_GameObject: {fileID: 0}
  m_Enabled: 1
  m_EditorHideFlags: 0
  m_Script: {fileID: 11500000, guid: dfee2b7e609ced244972e938e7722a17, type: 3}
  m_Name: _Option
  m_EditorClassIdentifier: 
  name: Supplies
  sprite: {fileID: 21300000, guid: 3a5069786b533c047a275da4b21eb8e5, type: 3}
  augmentBuilder: {fileID: 0}
  resourceAugments: []
  stats:
  - ModifierType: 0
    StatType: 27
    Value: 10
