%YAML 1.1
%TAG !u! tag:unity3d.com,2011:
--- !u!114 &11400000
MonoBehaviour:
  m_ObjectHideFlags: 0
  m_CorrespondingSourceObject: {fileID: 0}
  m_PrefabInternal: {fileID: 0}
  m_GameObject: {fileID: 0}
  m_Enabled: 1
  m_EditorHideFlags: 0
  m_Script: {fileID: 11500000, guid: 9d048f8ddb3386e479ec3cdb71a8ed10, type: 3}
  m_Name: Enchantments
  m_EditorClassIdentifier: 
  sets:
  - {fileID: 11400000, guid: c7b5bff6c6a2f5b41a91b69eace70ede, type: 2}
  - {fileID: 11400000, guid: 251685e29f774734da7f0a7594a017e1, type: 2}
  - {fileID: 11400000, guid: 2490d7dff45c42a4d91b4e4cdb594068, type: 2}
