%YAML 1.1
%TAG !u! tag:unity3d.com,2011:
--- !u!114 &11400000
MonoBehaviour:
  m_ObjectHideFlags: 0
  m_CorrespondingSourceObject: {fileID: 0}
  m_PrefabInternal: {fileID: 0}
  m_GameObject: {fileID: 0}
  m_Enabled: 1
  m_EditorHideFlags: 0
  m_Script: {fileID: 11500000, guid: ff3581a22e4d5594da0f2bcaf581bf5a, type: 3}
  m_Name: MechanicalSprayer
  m_EditorClassIdentifier: 
  sprite: {fileID: 21300000, guid: 8b2c916c0d307d941b57988f49f1ba7e, type: 3}
  spriteManager: {fileID: 11400000, guid: 5fe216c4403efbd4598084a395e6c837, type: 2}
  spriteIndex: 89
  damages:
  - type: 1
    result: 0
    damageFactor: 0.45
    value: 2
  buffs: []
  debuffs:
  - {fileID: 11400000, guid: a628fa8e10c869e4bb611a1270b5e6d9, type: 2}
  name: Mechanical Sprayer
  proficiencyType: 4
  conditions: []
  period: 5
  damageFactor: 0
  selfDamages: []
  instanceStats: []
  unitResources: []
  purgeCount: 0
  cleanseCount: 0
