%YAML 1.1
%TAG !u! tag:unity3d.com,2011:
--- !u!114 &11400000
MonoBehaviour:
  m_ObjectHideFlags: 0
  m_CorrespondingSourceObject: {fileID: 0}
  m_PrefabInternal: {fileID: 0}
  m_GameObject: {fileID: 0}
  m_Enabled: 1
  m_EditorHideFlags: 0
  m_Script: {fileID: 11500000, guid: 5e16c8ac774a0624db25f1969f114625, type: 3}
  m_Name: Serrated
  m_EditorClassIdentifier: 
  stats:
  - ModifierType: 0
    StatType: 22
    Value: 12
  statEquivalencies: {fileID: 11400000, guid: b9976fa2b4a6b3444bf1ae3f219eb06e, type: 2}
  materialName: Serrated
  difficulty:
    UseConstant: 1
    ConstantValue: 1
    Variable: {fileID: 0}
  recipeCost: {fileID: 11400000, guid: 951fbfd7fc9e16444ba6ef21c0b3d55a, type: 2}
