%YAML 1.1
%TAG !u! tag:unity3d.com,2011:
--- !u!114 &11400000
MonoBehaviour:
  m_ObjectHideFlags: 0
  m_CorrespondingSourceObject: {fileID: 0}
  m_PrefabInternal: {fileID: 0}
  m_GameObject: {fileID: 0}
  m_Enabled: 1
  m_EditorHideFlags: 0
  m_Script: {fileID: 11500000, guid: 0c160bc2729196148800148187854b1b, type: 3}
  m_Name: Focused
  m_EditorClassIdentifier: 
  name: Focused
  spriteManager: {fileID: 11400000, guid: 5fe216c4403efbd4598084a395e6c837, type: 2}
  spriteIndex: 101
  sprite: {fileID: 21300000, guid: 5ffece97327c99f4da8122b55d082dfa, type: 3}
  duration: 3
  period: 0
  damageFactor: 0
  periodicDamages: []
  finalDamages: []
  stats:
  - ModifierType: 0
    StatType: 4
    Value: 10
  - ModifierType: 2
    StatType: 4
    Value: 0.25
  - ModifierType: 0
    StatType: 2
    Value: 200
