%YAML 1.1
%TAG !u! tag:unity3d.com,2011:
--- !u!114 &11400000
MonoBehaviour:
  m_ObjectHideFlags: 0
  m_CorrespondingSourceObject: {fileID: 0}
  m_PrefabInternal: {fileID: 0}
  m_GameObject: {fileID: 0}
  m_Enabled: 1
  m_EditorHideFlags: 0
  m_Script: {fileID: 11500000, guid: bf31ac307313d6348a2252f58164a1de, type: 3}
  m_Name: _Jewelry
  m_EditorClassIdentifier: 
  setName: Jewelry
  generators:
  - generator: {fileID: 11400000, guid: f9a1d5936d3070748ac5e8501a492eb9, type: 2}
    frequency: 0.5
  - generator: {fileID: 11400000, guid: bec808d24032d0d4aac928059d885048, type: 2}
    frequency: 1
  - generator: {fileID: 11400000, guid: a64c80fe6ebeaf2489f912388dc15bd2, type: 2}
    frequency: 0
  - generator: {fileID: 11400000, guid: c6410e1377b5fc142ad9206336edc94d, type: 2}
    frequency: 0.5
  - generator: {fileID: 11400000, guid: 061df646b45849a4fbb2de9df33d6583, type: 2}
    frequency: 1
  - generator: {fileID: 11400000, guid: 91bb91442ab8ca245a4f305244db1b37, type: 2}
    frequency: 0
