%YAML 1.1
%TAG !u! tag:unity3d.com,2011:
--- !u!114 &11400000
MonoBehaviour:
  m_ObjectHideFlags: 0
  m_CorrespondingSourceObject: {fileID: 0}
  m_PrefabInternal: {fileID: 0}
  m_GameObject: {fileID: 0}
  m_Enabled: 1
  m_EditorHideFlags: 0
  m_Script: {fileID: 11500000, guid: dfee2b7e609ced244972e938e7722a17, type: 3}
  m_Name: __crushing
  m_EditorClassIdentifier: 
  name: Crushing
  sprite: {fileID: 21300000, guid: 27ea94480c48a244ebfe9e0ff83e7ff5, type: 3}
  augmentBuilder: {fileID: 11400000, guid: e72fb40c2fa643d458d5bfeca23b2351, type: 2}
  resourceAugments: []
  stats: []
