%YAML 1.1
%TAG !u! tag:unity3d.com,2011:
--- !u!114 &11400000
MonoBehaviour:
  m_ObjectHideFlags: 0
  m_CorrespondingSourceObject: {fileID: 0}
  m_PrefabInternal: {fileID: 0}
  m_GameObject: {fileID: 0}
  m_Enabled: 1
  m_EditorHideFlags: 0
  m_Script: {fileID: 11500000, guid: 132f10f97475e1949be71a8a949dbf57, type: 3}
  m_Name: __practiced
  m_EditorClassIdentifier: 
  name: Practiced
  leftSprite: {fileID: 21300000, guid: 5ffece97327c99f4da8122b55d082dfa, type: 3}
  rightSprite: {fileID: 0}
  timedAbility: {fileID: 0}
  triggeredAbility: {fileID: 0}
  options:
  - {fileID: 11400000, guid: dc4c5f6aa26e7bb4f9a1c2a88b9cb5e9, type: 2}
  - {fileID: 11400000, guid: e4c0a716cbfb1f24ba1756d5acc30143, type: 2}
  - {fileID: 11400000, guid: 11231197f92ae264aa43f5d309ab9923, type: 2}
  resourceAugments: []
  stats:
  - ModifierType: 2
    StatType: 4
    Value: 0.15
