%YAML 1.1
%TAG !u! tag:unity3d.com,2011:
--- !u!114 &11400000
MonoBehaviour:
  m_ObjectHideFlags: 0
  m_CorrespondingSourceObject: {fileID: 0}
  m_PrefabInternal: {fileID: 0}
  m_GameObject: {fileID: 0}
  m_Enabled: 1
  m_EditorHideFlags: 0
  m_Script: {fileID: 11500000, guid: 2d0a69a268b862a41ab16c56650be9df, type: 3}
  m_Name: Design
  m_EditorClassIdentifier: 
  stats:
  - ModifierType: 0
    StatType: 4
    Value: 7
  - ModifierType: 0
    StatType: 37
    Value: 1
  - ModifierType: 0
    StatType: 45
    Value: 2.5
  statEquivalencies: {fileID: 11400000, guid: b9976fa2b4a6b3444bf1ae3f219eb06e, type: 2}
  designName: 
  craftingCost: {fileID: 11400000, guid: f055dc2a9f0304b44ac9a3e9a85780a5, type: 2}
