%YAML 1.1
%TAG !u! tag:unity3d.com,2011:
--- !u!114 &11400000
MonoBehaviour:
  m_ObjectHideFlags: 0
  m_CorrespondingSourceObject: {fileID: 0}
  m_PrefabInternal: {fileID: 0}
  m_GameObject: {fileID: 0}
  m_Enabled: 1
  m_EditorHideFlags: 0
  m_Script: {fileID: 11500000, guid: 919fb9dbbd3fbcb4e9b47cb3d5166307, type: 3}
  m_Name: PhysWeapon
  m_EditorClassIdentifier: 
  archetypes:
  - equipmentArchetype: {fileID: 11400000, guid: 06a5522eef6af304a9cddd592a6f2af6,
      type: 2}
    frequency: 0.1
  - equipmentArchetype: {fileID: 11400000, guid: 828fc11898f860e468c7dd7a81b4ac07,
      type: 2}
    frequency: 0.25
  - equipmentArchetype: {fileID: 11400000, guid: 39675b33a88a321489f4618fb9273af4,
      type: 2}
    frequency: 0
  - equipmentArchetype: {fileID: 11400000, guid: 38ad88f538c702a4cbb02ad70457fe21,
      type: 2}
    frequency: 0.25
  - equipmentArchetype: {fileID: 11400000, guid: 53b1581ed3f4689458319b00be7befc2,
      type: 2}
    frequency: 0.25
  - equipmentArchetype: {fileID: 11400000, guid: 33e44df72fdc71240b3d526a3b9c4cbb,
      type: 2}
    frequency: 0.1
  - equipmentArchetype: {fileID: 11400000, guid: 0b384c3e48421dd4ca032f8632d48ae1,
      type: 2}
    frequency: 0.25
  - equipmentArchetype: {fileID: 11400000, guid: f6905b0d595d18641b5daf6e283758b5,
      type: 2}
    frequency: 0.1
