%YAML 1.1
%TAG !u! tag:unity3d.com,2011:
--- !u!114 &11400000
MonoBehaviour:
  m_ObjectHideFlags: 0
  m_CorrespondingSourceObject: {fileID: 0}
  m_PrefabInternal: {fileID: 0}
  m_GameObject: {fileID: 0}
  m_Enabled: 1
  m_EditorHideFlags: 0
  m_Script: {fileID: 11500000, guid: b1d8ead389d366f48b107fe3668f6878, type: 3}
  m_Name: PhysicalDistribution
  m_EditorClassIdentifier: 
  damages:
  - category: 1
    chance: 1
  - category: 2
    chance: 0.5
  - category: 3
    chance: 0.5
