%YAML 1.1
%TAG !u! tag:unity3d.com,2011:
--- !u!114 &11400000
MonoBehaviour:
  m_ObjectHideFlags: 0
  m_CorrespondingSourceObject: {fileID: 0}
  m_PrefabInternal: {fileID: 0}
  m_GameObject: {fileID: 0}
  m_Enabled: 1
  m_EditorHideFlags: 0
  m_Script: {fileID: 11500000, guid: dfee2b7e609ced244972e938e7722a17, type: 3}
  m_Name: __disperse
  m_EditorClassIdentifier: 
  name: Disperse
  sprite: {fileID: 21300000, guid: e678c7c015e34e2428741c9a51f3c9b5, type: 3}
  augmentBuilder: {fileID: 11400000, guid: 0cb61352701a9ec42bc546668fbec66c, type: 2}
  resourceAugments: []
  stats: []
