%YAML 1.1
%TAG !u! tag:unity3d.com,2011:
--- !u!114 &11400000
MonoBehaviour:
  m_ObjectHideFlags: 0
  m_CorrespondingSourceObject: {fileID: 0}
  m_PrefabInternal: {fileID: 0}
  m_GameObject: {fileID: 0}
  m_Enabled: 1
  m_EditorHideFlags: 0
  m_Script: {fileID: 11500000, guid: c57fc247379b92c48bc0170e213312cf, type: 3}
  m_Name: Divinity
  m_EditorClassIdentifier: 
  stats:
  - ModifierType: 0
    StatType: 1
    Value: 3
  - ModifierType: 0
    StatType: 2
    Value: 3
  statEquivalencies: {fileID: 11400000, guid: b9976fa2b4a6b3444bf1ae3f219eb06e, type: 2}
  minLevel:
    UseConstant: 1
    ConstantValue: -1
    Variable: {fileID: 0}
  maxLevel:
    UseConstant: 1
    ConstantValue: 1
    Variable: {fileID: 0}
  recipeCost: {fileID: 11400000, guid: 7a57795ad86d4014da4f4b669223f433, type: 2}
