%YAML 1.1
%TAG !u! tag:unity3d.com,2011:
--- !u!114 &11400000
MonoBehaviour:
  m_ObjectHideFlags: 0
  m_CorrespondingSourceObject: {fileID: 0}
  m_PrefabInternal: {fileID: 0}
  m_GameObject: {fileID: 0}
  m_Enabled: 1
  m_EditorHideFlags: 0
  m_Script: {fileID: 11500000, guid: dfee2b7e609ced244972e938e7722a17, type: 3}
  m_Name: __enlightenment
  m_EditorClassIdentifier: 
  name: Enlightenment
  sprite: {fileID: 21300000, guid: f1638d36daaf5bf4ba7aab0508020848, type: 3}
  augmentBuilder: {fileID: 11400000, guid: ee7805738941c2c46b35209bb253e5d2, type: 2}
  resourceAugments:
  - type: 2
    cap: 0
    stats:
    - ModifierType: 0
      StatType: 39
      Value: 3
  stats: []
