%YAML 1.1
%TAG !u! tag:unity3d.com,2011:
--- !u!114 &11400000
MonoBehaviour:
  m_ObjectHideFlags: 0
  m_CorrespondingSourceObject: {fileID: 0}
  m_PrefabInternal: {fileID: 0}
  m_GameObject: {fileID: 0}
  m_Enabled: 1
  m_EditorHideFlags: 0
  m_Script: {fileID: 11500000, guid: 37bcfcb3f88dca84d9028971ccc5e370, type: 3}
  m_Name: PoisonAffliction
  m_EditorClassIdentifier: 
  stats:
  - ModifierType: 0
    StatType: 8
    Value: 2
  - ModifierType: 0
    StatType: 38
    Value: 2.5
  statEquivalencies: {fileID: 11400000, guid: b9976fa2b4a6b3444bf1ae3f219eb06e, type: 2}
  enchantmentName: of Venom
  difficulty:
    UseConstant: 1
    ConstantValue: 4
    Variable: {fileID: 0}
  minLevel:
    UseConstant: 1
    ConstantValue: 1
    Variable: {fileID: 0}
  maxLevel:
    UseConstant: 1
    ConstantValue: 5
    Variable: {fileID: 0}
  recipeCost: {fileID: 11400000, guid: 8d6c10e40ec26fe459f2b75c755014d9, type: 2}
