%YAML 1.1
%TAG !u! tag:unity3d.com,2011:
--- !u!114 &11400000
MonoBehaviour:
  m_ObjectHideFlags: 0
  m_CorrespondingSourceObject: {fileID: 0}
  m_PrefabInternal: {fileID: 0}
  m_GameObject: {fileID: 0}
  m_Enabled: 1
  m_EditorHideFlags: 0
  m_Script: {fileID: 11500000, guid: d9a95c8fb803c9642b95793a3a706c25, type: 3}
  m_Name: Scion
  m_EditorClassIdentifier: 
  DeveloperDescription: 
  name: Scion
  staticStats:
  - ModifierType: 0
    StatType: 0
    Value: 165
  - ModifierType: 0
    StatType: 4
    Value: 12
  - ModifierType: 0
    StatType: 12
    Value: 15
  - ModifierType: 0
    StatType: 5
    Value: 15
  - ModifierType: 0
    StatType: 13
    Value: 55
  - ModifierType: 0
    StatType: 17
    Value: 15
  - ModifierType: 0
    StatType: 19
    Value: 15
  - ModifierType: 0
    StatType: 15
    Value: 35
  - ModifierType: 0
    StatType: 1
    Value: 15
  - ModifierType: 0
    StatType: 2
    Value: 15
  statScalingPerLevel: 0.05
  abilities:
  - {fileID: 11400000, guid: cc8c04504cb32634f88199f0e1acd087, type: 2}
  triggeredActions:
  - {fileID: 11400000, guid: 44bc080a34c1dfd448e6970fa104d325, type: 2}
  talents:
  - left: {fileID: 0}
    right: {fileID: 0}
  bonusLootMods: 0
  bonusLootLevel: 1
  identifyChance: 0
  unitResourceAugments: []
  lootValue: {fileID: 11400000, guid: dcd1e6759ba8d2245aa13a7916d13aa4, type: 2}
