%YAML 1.1
%TAG !u! tag:unity3d.com,2011:
--- !u!114 &11400000
MonoBehaviour:
  m_ObjectHideFlags: 0
  m_CorrespondingSourceObject: {fileID: 0}
  m_PrefabInternal: {fileID: 0}
  m_GameObject: {fileID: 0}
  m_Enabled: 1
  m_EditorHideFlags: 0
  m_Script: {fileID: 11500000, guid: 4b76adc36f3c34c46b251e47b7b9e91d, type: 3}
  m_Name: EnclaveKeepersMantle
  m_EditorClassIdentifier: 
  name: Enclave Keepers Mantle
  spriteManager: {fileID: 11400000, guid: 5fe216c4403efbd4598084a395e6c837, type: 2}
  rarity: 1
  staticStats:
  - ModifierType: 0
    StatType: 0
    Value: 15
  - ModifierType: 0
    StatType: 5
    Value: 6
  - ModifierType: 1
    StatType: 16
    Value: 0.25
  - ModifierType: 1
    StatType: 18
    Value: 0.25
  - ModifierType: 0
    StatType: 1
    Value: 15
  - ModifierType: 0
    StatType: 31
    Value: 8
  - ModifierType: 0
    StatType: 45
    Value: 5
  scalingStats: []
  abilities: []
  triggeredActions:
  - {fileID: 11400000, guid: a22e754b3cac46942957f87493419f86, type: 2}
  sprite: {fileID: 21300000, guid: a8acf814f00dea745896459505fe7490, type: 3}
  spriteIndex: 54
  slot: 1
  recipeCost: {fileID: 11400000, guid: e9ad2898a63b7804f9af279bf57ecbca, type: 2}
