%YAML 1.1
%TAG !u! tag:unity3d.com,2011:
--- !u!114 &11400000
MonoBehaviour:
  m_ObjectHideFlags: 0
  m_CorrespondingSourceObject: {fileID: 0}
  m_PrefabInternal: {fileID: 0}
  m_GameObject: {fileID: 0}
  m_Enabled: 1
  m_EditorHideFlags: 0
  m_Script: {fileID: 11500000, guid: e4d2a9353f8fce846a713f92c1f0ffb6, type: 3}
  m_Name: Fireball
  m_EditorClassIdentifier: 
  sprite: {fileID: 21300000, guid: ae4a0e8fddd810845bd9e8fd2dacc98f, type: 3}
  spriteManager: {fileID: 11400000, guid: 5fe216c4403efbd4598084a395e6c837, type: 2}
  spriteIndex: 92
  damages:
  - type: 4
    result: 0
    damageFactor: 1.8
    value: 10
  buffs: []
  debuffs:
  - {fileID: 11400000, guid: 4303fd471847ce648a7a1a0f913705f7, type: 2}
  name: Fireball
  proficiencyType: 0
  conditions: []
  period: 45
  damageFactor: 0
  selfDamages: []
  instanceStats: []
  unitResources: []
  purgeCount: 0
  cleanseCount: 0
