%YAML 1.1
%TAG !u! tag:unity3d.com,2011:
--- !u!114 &11400000
MonoBehaviour:
  m_ObjectHideFlags: 0
  m_CorrespondingSourceObject: {fileID: 0}
  m_PrefabInternal: {fileID: 0}
  m_GameObject: {fileID: 0}
  m_Enabled: 1
  m_EditorHideFlags: 0
  m_Script: {fileID: 11500000, guid: e4d2a9353f8fce846a713f92c1f0ffb6, type: 3}
  m_Name: PrismaticFlash
  m_EditorClassIdentifier: 
  sprite: {fileID: 21300000, guid: f1638d36daaf5bf4ba7aab0508020848, type: 3}
  spriteManager: {fileID: 11400000, guid: 5fe216c4403efbd4598084a395e6c837, type: 2}
  spriteIndex: 82
  damages:
  - type: 4
    result: 0
    damageFactor: 1
    value: 3
  - type: 5
    result: 0
    damageFactor: 1
    value: 3
  - type: 6
    result: 0
    damageFactor: 1
    value: 3
  buffs:
  - {fileID: 11400000, guid: 0c9b8ea911f28dd49a9db744cabcb1af, type: 2}
  debuffs: []
  name: Prismatic Flash
  proficiencyType: 0
  conditions: []
  period: 22
  damageFactor: 0
  selfDamages: []
  instanceStats: []
  unitResources: []
  purgeCount: 0
  cleanseCount: 0
