%YAML 1.1
%TAG !u! tag:unity3d.com,2011:
--- !u!114 &11400000
MonoBehaviour:
  m_ObjectHideFlags: 0
  m_CorrespondingSourceObject: {fileID: 0}
  m_PrefabInternal: {fileID: 0}
  m_GameObject: {fileID: 0}
  m_Enabled: 1
  m_EditorHideFlags: 0
  m_Script: {fileID: 11500000, guid: aae921719d21fb34db7864a7c81de4cc, type: 3}
  m_Name: Quality
  m_EditorClassIdentifier: 
  stats:
  - ModifierType: 0
    StatType: 2
    Value: 1
  statEquivalencies: {fileID: 11400000, guid: b9976fa2b4a6b3444bf1ae3f219eb06e, type: 2}
  minLevel:
    UseConstant: 1
    ConstantValue: -1
    Variable: {fileID: 0}
  maxLevel:
    UseConstant: 1
    ConstantValue: 4
    Variable: {fileID: 0}
  recipeCost: {fileID: 11400000, guid: f055dc2a9f0304b44ac9a3e9a85780a5, type: 2}
