%YAML 1.1
%TAG !u! tag:unity3d.com,2011:
--- !u!114 &11400000
MonoBehaviour:
  m_ObjectHideFlags: 0
  m_CorrespondingSourceObject: {fileID: 0}
  m_PrefabInternal: {fileID: 0}
  m_GameObject: {fileID: 0}
  m_Enabled: 1
  m_EditorHideFlags: 0
  m_Script: {fileID: 11500000, guid: 919fb9dbbd3fbcb4e9b47cb3d5166307, type: 3}
  m_Name: jewelry
  m_EditorClassIdentifier: 
  archetypes:
  - equipmentArchetype: {fileID: 11400000, guid: 0f97d106c9c0dad4cb7634458486e27c,
      type: 2}
    frequency: 0.75
  - equipmentArchetype: {fileID: 11400000, guid: cf5e8d60285709648b67cb9c26fb471d,
      type: 2}
    frequency: 0.05
  - equipmentArchetype: {fileID: 11400000, guid: b67c2e99281bc154398ab9ff9cf7a164,
      type: 2}
    frequency: 1
  - equipmentArchetype: {fileID: 11400000, guid: 6ad282a1a38d5864b911f5d3720e8921,
      type: 2}
    frequency: 0.01
