%YAML 1.1
%TAG !u! tag:unity3d.com,2011:
--- !u!114 &11400000
MonoBehaviour:
  m_ObjectHideFlags: 0
  m_CorrespondingSourceObject: {fileID: 0}
  m_PrefabInternal: {fileID: 0}
  m_GameObject: {fileID: 0}
  m_Enabled: 1
  m_EditorHideFlags: 0
  m_Script: {fileID: 11500000, guid: f3ee2cb0830d42b4593953a350297b0a, type: 3}
  m_Name: Ability
  m_EditorClassIdentifier: 
  DeveloperDescription: 
  Value: {r: 0.6981132, g: 0.5409384, b: 0.3786935, a: 1}
