%YAML 1.1
%TAG !u! tag:unity3d.com,2011:
--- !u!114 &11400000
MonoBehaviour:
  m_ObjectHideFlags: 0
  m_CorrespondingSourceObject: {fileID: 0}
  m_PrefabInternal: {fileID: 0}
  m_GameObject: {fileID: 0}
  m_Enabled: 1
  m_EditorHideFlags: 0
  m_Script: {fileID: 11500000, guid: 132f10f97475e1949be71a8a949dbf57, type: 3}
  m_Name: __flash
  m_EditorClassIdentifier: 
  name: Flash
  leftSprite: {fileID: 21300000, guid: f1638d36daaf5bf4ba7aab0508020848, type: 3}
  rightSprite: {fileID: 21300000, guid: c2876527397ec784e9bee0500140f722, type: 3}
  timedAbility: {fileID: 11400000, guid: d34bb2ec8098bc54a893e72a35a26aa1, type: 2}
  triggeredAbility: {fileID: 0}
  options:
  - {fileID: 11400000, guid: 4f82acab2801d2640866bf5426f56120, type: 2}
  - {fileID: 11400000, guid: 3eee63f0d100e064389d24aa7e6cd078, type: 2}
  - {fileID: 11400000, guid: 05424043dabeaef4ea89d4caf42491a5, type: 2}
  resourceAugments: []
  stats: []
