%YAML 1.1
%TAG !u! tag:unity3d.com,2011:
--- !u!114 &11400000
MonoBehaviour:
  m_ObjectHideFlags: 0
  m_CorrespondingSourceObject: {fileID: 0}
  m_PrefabInternal: {fileID: 0}
  m_GameObject: {fileID: 0}
  m_Enabled: 1
  m_EditorHideFlags: 0
  m_Script: {fileID: 11500000, guid: 5cc29f2bcb409df46bc322e4b4bf4e14, type: 3}
  m_Name: TimedEffectPadding
  m_EditorClassIdentifier: 
  DeveloperDescription: 
  Value: 8
