%YAML 1.1
%TAG !u! tag:unity3d.com,2011:
--- !u!114 &11400000
MonoBehaviour:
  m_ObjectHideFlags: 0
  m_CorrespondingSourceObject: {fileID: 0}
  m_PrefabInternal: {fileID: 0}
  m_GameObject: {fileID: 0}
  m_Enabled: 1
  m_EditorHideFlags: 0
  m_Script: {fileID: 11500000, guid: 9abe928245068d544a4df96350c34f25, type: 3}
  m_Name: Materials
  m_EditorClassIdentifier: 
  sets:
  - {fileID: 11400000, guid: b4c33e38ffaa192448d8e4f300854861, type: 2}
