%YAML 1.1
%TAG !u! tag:unity3d.com,2011:
--- !u!114 &11400000
MonoBehaviour:
  m_ObjectHideFlags: 0
  m_CorrespondingSourceObject: {fileID: 0}
  m_PrefabInternal: {fileID: 0}
  m_GameObject: {fileID: 0}
  m_Enabled: 1
  m_EditorHideFlags: 0
  m_Script: {fileID: 11500000, guid: 4b76adc36f3c34c46b251e47b7b9e91d, type: 3}
  m_Name: FireStaff
  m_EditorClassIdentifier: 
  name: Staff
  spriteManager: {fileID: 11400000, guid: 5fe216c4403efbd4598084a395e6c837, type: 2}
  rarity: 0
  staticStats:
  - ModifierType: 0
    StatType: 12
    Value: 8
  scalingStats: []
  abilities:
  - {fileID: 11400000, guid: 38fecbd50c3bfc744a3279a4cff36e0a, type: 2}
  triggeredActions: []
  sprite: {fileID: 21300000, guid: b82fc0f2ac5c6214ca5e55ce48c9d2f8, type: 3}
  spriteIndex: 7
  slot: 3
  recipeCost: {fileID: 11400000, guid: e9ad2898a63b7804f9af279bf57ecbca, type: 2}
