%YAML 1.1
%TAG !u! tag:unity3d.com,2011:
--- !u!114 &11400000
MonoBehaviour:
  m_ObjectHideFlags: 0
  m_CorrespondingSourceObject: {fileID: 0}
  m_PrefabInternal: {fileID: 0}
  m_GameObject: {fileID: 0}
  m_Enabled: 1
  m_EditorHideFlags: 0
  m_Script: {fileID: 11500000, guid: dfee2b7e609ced244972e938e7722a17, type: 3}
  m_Name: _Option 2
  m_EditorClassIdentifier: 
  name: Advanced
  sprite: {fileID: 21300000, guid: 8b2c916c0d307d941b57988f49f1ba7e, type: 3}
  augmentBuilder: {fileID: 0}
  resourceAugments: []
  stats:
  - ModifierType: 0
    StatType: 25
    Value: 12
  - ModifierType: 0
    StatType: 43
    Value: 15
