%YAML 1.1
%TAG !u! tag:unity3d.com,2011:
--- !u!114 &11400000
MonoBehaviour:
  m_ObjectHideFlags: 0
  m_CorrespondingSourceObject: {fileID: 0}
  m_PrefabInternal: {fileID: 0}
  m_GameObject: {fileID: 0}
  m_Enabled: 1
  m_EditorHideFlags: 0
  m_Script: {fileID: 11500000, guid: dfee2b7e609ced244972e938e7722a17, type: 3}
  m_Name: __death
  m_EditorClassIdentifier: 
  name: Death
  sprite: {fileID: 21300000, guid: d255cf3de40ffdc43a175fbeca9bc0a3, type: 3}
  augmentBuilder: {fileID: 11400000, guid: 1b30bc1115bcb574c9e5f3719f7396cc, type: 2}
  resourceAugments: []
  stats: []
