%YAML 1.1
%TAG !u! tag:unity3d.com,2011:
--- !u!114 &11400000
MonoBehaviour:
  m_ObjectHideFlags: 0
  m_CorrespondingSourceObject: {fileID: 0}
  m_PrefabInternal: {fileID: 0}
  m_GameObject: {fileID: 0}
  m_Enabled: 1
  m_EditorHideFlags: 0
  m_Script: {fileID: 11500000, guid: c06836a1c091dc041a9f114a99cc00e0, type: 3}
  m_Name: _Fencer
  m_EditorClassIdentifier: 
  name: Fencer
  talentRows:
  - tb0: {fileID: 11400000, guid: e67f28ed17ef5dc4dacafb41314bdeb9, type: 2}
    tb1: {fileID: 11400000, guid: f67493a3f8b8c8c47a7df6e565549add, type: 2}
    tb2: {fileID: 11400000, guid: a5f65c1c2c730a84c94c861c4e7dee7a, type: 2}
    tb3: {fileID: 0}
  - tb0: {fileID: 11400000, guid: 35420be4919489147a26efbcdb6dea62, type: 2}
    tb1: {fileID: 11400000, guid: 45214b840a6729248ade50a9bd9a0ed2, type: 2}
    tb2: {fileID: 11400000, guid: 9331b2a6dbd8e4946914c600e6f9ba14, type: 2}
    tb3: {fileID: 11400000, guid: ae11f5604d4fe6843bd6c27708245b30, type: 2}
  - tb0: {fileID: 11400000, guid: b018eb960eab2e042901fbe2447c56a2, type: 2}
    tb1: {fileID: 0}
    tb2: {fileID: 11400000, guid: 375d31286bc95854bb59b84aae4f626d, type: 2}
    tb3: {fileID: 11400000, guid: 0ed861262cb07104c9a93884623ff4bf, type: 2}
  - tb0: {fileID: 11400000, guid: f9fcdc3c8d4d5a344899cb3bff6856c4, type: 2}
    tb1: {fileID: 11400000, guid: c78999ec03f3328458d051fb17df2731, type: 2}
    tb2: {fileID: 11400000, guid: a3f7404ff51018140a8315ead6255e22, type: 2}
    tb3: {fileID: 0}
  - tb0: {fileID: 0}
    tb1: {fileID: 0}
    tb2: {fileID: 0}
    tb3: {fileID: 11400000, guid: 9d05084e96314e247acfe76783436c66, type: 2}
