%YAML 1.1
%TAG !u! tag:unity3d.com,2011:
--- !u!114 &11400000
MonoBehaviour:
  m_ObjectHideFlags: 0
  m_CorrespondingSourceObject: {fileID: 0}
  m_PrefabInternal: {fileID: 0}
  m_GameObject: {fileID: 0}
  m_Enabled: 1
  m_EditorHideFlags: 0
  m_Script: {fileID: 11500000, guid: dfee2b7e609ced244972e938e7722a17, type: 3}
  m_Name: __boost
  m_EditorClassIdentifier: 
  name: Boost
  sprite: {fileID: 21300000, guid: 1a21c34faa9f70145ab6c4c4bdbd897c, type: 3}
  augmentBuilder: {fileID: 11400000, guid: 107d7e7e0df36434ca4d9ec15c482e9f, type: 2}
  resourceAugments: []
  stats: []
