%YAML 1.1
%TAG !u! tag:unity3d.com,2011:
--- !u!114 &11400000
MonoBehaviour:
  m_ObjectHideFlags: 0
  m_CorrespondingSourceObject: {fileID: 0}
  m_PrefabInternal: {fileID: 0}
  m_GameObject: {fileID: 0}
  m_Enabled: 1
  m_EditorHideFlags: 0
  m_Script: {fileID: 11500000, guid: dfee2b7e609ced244972e938e7722a17, type: 3}
  m_Name: __tru'lth
  m_EditorClassIdentifier: 
  name: Tru'lth
  sprite: {fileID: 21300000, guid: 39be1f5bdd4ddd64d8c3ae0074e26b35, type: 3}
  augmentBuilder: {fileID: 11400000, guid: e9c44f0d9509e644c8eb50e3be9a499a, type: 2}
  resourceAugments: []
  stats:
  - ModifierType: 0
    StatType: 0
    Value: -2
