%YAML 1.1
%TAG !u! tag:unity3d.com,2011:
--- !u!114 &11400000
MonoBehaviour:
  m_ObjectHideFlags: 0
  m_CorrespondingSourceObject: {fileID: 0}
  m_PrefabInternal: {fileID: 0}
  m_GameObject: {fileID: 0}
  m_Enabled: 1
  m_EditorHideFlags: 0
  m_Script: {fileID: 11500000, guid: d9a95c8fb803c9642b95793a3a706c25, type: 3}
  m_Name: OakenSpirit
  m_EditorClassIdentifier: 
  DeveloperDescription: 
  name: Oaken Spirit
  staticStats:
  - ModifierType: 2
    StatType: 10
    Value: 0.5
  - ModifierType: 0
    StatType: 0
    Value: 15
  - ModifierType: 0
    StatType: 30
    Value: 10
  - ModifierType: 0
    StatType: 31
    Value: 12
  - ModifierType: 0
    StatType: 17
    Value: 15
  statScalingPerLevel: 0
  abilities:
  - {fileID: 11400000, guid: f7b340e7c37b1ed448225ddc5d57ea9b, type: 2}
  - {fileID: 11400000, guid: 2889a2faaaf201845a6fdc5a7721aea8, type: 2}
  triggeredActions: []
  talents: []
  bonusLootMods: 0
  bonusLootLevel: 0
  identifyChance: 0
  unitResourceAugments: []
  lootValue: {fileID: 11400000, guid: 544213fb7d5f3f54d8d810b7ff558580, type: 2}
