%YAML 1.1
%TAG !u! tag:unity3d.com,2011:
--- !u!114 &11400000
MonoBehaviour:
  m_ObjectHideFlags: 0
  m_CorrespondingSourceObject: {fileID: 0}
  m_PrefabInternal: {fileID: 0}
  m_GameObject: {fileID: 0}
  m_Enabled: 1
  m_EditorHideFlags: 0
  m_Script: {fileID: 11500000, guid: 132f10f97475e1949be71a8a949dbf57, type: 3}
  m_Name: __toolsOfWar
  m_EditorClassIdentifier: 
  name: Tools of War
  leftSprite: {fileID: 21300000, guid: 28a1cda17fb0443499f41ba0d821eef6, type: 3}
  rightSprite: {fileID: 0}
  timedAbility: {fileID: 11400000, guid: 62a1e3547e475004ea26b2343836626e, type: 2}
  triggeredAbility: {fileID: 0}
  options:
  - {fileID: 11400000, guid: 821d7c966354c1640aa92be370929035, type: 2}
  - {fileID: 11400000, guid: e88234c8b4a6bf944adcf345722d134e, type: 2}
  - {fileID: 11400000, guid: d1e99c28c08785f46861fd670413f3ed, type: 2}
  resourceAugments: []
  stats: []
