%YAML 1.1
%TAG !u! tag:unity3d.com,2011:
--- !u!114 &11400000
MonoBehaviour:
  m_ObjectHideFlags: 0
  m_CorrespondingSourceObject: {fileID: 0}
  m_PrefabInternal: {fileID: 0}
  m_GameObject: {fileID: 0}
  m_Enabled: 1
  m_EditorHideFlags: 0
  m_Script: {fileID: 11500000, guid: d9a95c8fb803c9642b95793a3a706c25, type: 3}
  m_Name: Snake
  m_EditorClassIdentifier: 
  DeveloperDescription: 
  name: Snake
  staticStats:
  - ModifierType: 0
    StatType: 0
    Value: 18
  - ModifierType: 0
    StatType: 2
    Value: 12
  statScalingPerLevel: 0
  abilities:
  - {fileID: 11400000, guid: c40da640aaa7ec140899d90b70078ad2, type: 2}
  triggeredActions: []
  talents:
  - left: {fileID: 0}
    right: {fileID: 0}
  bonusLootMods: 0
  bonusLootLevel: 0
  identifyChance: 0
  unitResourceAugments: []
  lootValue: {fileID: 11400000, guid: f95ee36bb731989439e1d4f700ad1fa4, type: 2}
