%YAML 1.1
%TAG !u! tag:unity3d.com,2011:
--- !u!114 &11400000
MonoBehaviour:
  m_ObjectHideFlags: 0
  m_CorrespondingSourceObject: {fileID: 0}
  m_PrefabInternal: {fileID: 0}
  m_GameObject: {fileID: 0}
  m_Enabled: 1
  m_EditorHideFlags: 0
  m_Script: {fileID: 11500000, guid: 04e628744a609ea4882dafb29cb18768, type: 3}
  m_Name: TriggeredEvents
  m_EditorClassIdentifier: 
  minLevel: 3
  maxLevel: 100
  events:
  - triggeredEvent: {fileID: 11400000, guid: d7a60c983830664419807a250bd83f04, type: 2}
    frequency: 1
  - triggeredEvent: {fileID: 11400000, guid: 581f9be97d1ff454f927d8b771a2ea90, type: 2}
    frequency: 1
  - triggeredEvent: {fileID: 11400000, guid: aa29a6d89cf3fb44dacfdeffc2b1c0a6, type: 2}
    frequency: 1
  - triggeredEvent: {fileID: 11400000, guid: 2c7697b61e4b9cd4fbe08a8b25f30b87, type: 2}
    frequency: 1
