%YAML 1.1
%TAG !u! tag:unity3d.com,2011:
--- !u!114 &11400000
MonoBehaviour:
  m_ObjectHideFlags: 0
  m_CorrespondingSourceObject: {fileID: 0}
  m_PrefabInternal: {fileID: 0}
  m_GameObject: {fileID: 0}
  m_Enabled: 1
  m_EditorHideFlags: 0
  m_Script: {fileID: 11500000, guid: ce3fad34db9c8964399abc9a0fa335ff, type: 3}
  m_Name: aching
  m_EditorClassIdentifier: 
  name: Aching
  spriteManager: {fileID: 11400000, guid: 5fe216c4403efbd4598084a395e6c837, type: 2}
  spriteIndex: 107
  sprite: {fileID: 21300000, guid: 1586fd9437e6876448984e2fd36519b2, type: 3}
  duration: 3
  period: 1
  damageFactor: 0
  periodicDamages:
  - type: 0
    result: 0
    damageFactor: 0.15
    value: 2
  finalDamages: []
  stats:
  - ModifierType: 2
    StatType: 4
    Value: -0.1
