%YAML 1.1
%TAG !u! tag:unity3d.com,2011:
--- !u!114 &11400000
MonoBehaviour:
  m_ObjectHideFlags: 0
  m_CorrespondingSourceObject: {fileID: 0}
  m_PrefabInternal: {fileID: 0}
  m_GameObject: {fileID: 0}
  m_Enabled: 1
  m_EditorHideFlags: 0
  m_Script: {fileID: 11500000, guid: ce3fad34db9c8964399abc9a0fa335ff, type: 3}
  m_Name: Frostbite
  m_EditorClassIdentifier: 
  name: Frostbite
  spriteManager: {fileID: 11400000, guid: 5fe216c4403efbd4598084a395e6c837, type: 2}
  spriteIndex: 98
  sprite: {fileID: 21300000, guid: adc9e0da170c7cb4aa6b79cd0d7c0e9e, type: 3}
  duration: 3
  period: 1
  damageFactor: 0
  periodicDamages:
  - type: 5
    result: 0
    damageFactor: 0.25
    value: 2
  - type: 4
    result: 0
    damageFactor: 0.25
    value: 2
  finalDamages: []
  stats:
  - ModifierType: 0
    StatType: 1
    Value: -50
