%YAML 1.1
%TAG !u! tag:unity3d.com,2011:
--- !u!114 &11400000
MonoBehaviour:
  m_ObjectHideFlags: 0
  m_CorrespondingSourceObject: {fileID: 0}
  m_PrefabInternal: {fileID: 0}
  m_GameObject: {fileID: 0}
  m_Enabled: 1
  m_EditorHideFlags: 0
  m_Script: {fileID: 11500000, guid: c0dcb6c9d2c50204a867b88dd014442a, type: 3}
  m_Name: LootGenerator 1
  m_EditorClassIdentifier: 
  named:
    profile: {fileID: 11400000, guid: cb6460e88938cea46a59190fe00f97bc, type: 2}
    chance: 0.04
  itemValueCalculator: {fileID: 11400000, guid: f3f1a9af08d47a3409564b549d79e653,
    type: 2}
  genericItemValueCalculator: {fileID: 11400000, guid: 51ad91042d039664f93ce89e7e2e4a88,
    type: 2}
  lootManager: {fileID: 11400000, guid: d050777dabc32e3419a99c06aafc01e3, type: 2}
