%YAML 1.1
%TAG !u! tag:unity3d.com,2011:
--- !u!114 &11400000
MonoBehaviour:
  m_ObjectHideFlags: 0
  m_CorrespondingSourceObject: {fileID: 0}
  m_PrefabInternal: {fileID: 0}
  m_GameObject: {fileID: 0}
  m_Enabled: 1
  m_EditorHideFlags: 0
  m_Script: {fileID: 11500000, guid: ff3581a22e4d5594da0f2bcaf581bf5a, type: 3}
  m_Name: _howl
  m_EditorClassIdentifier: 
  name: Howl
  proficiencyType: 1
  sprite: {fileID: 21300000, guid: e594348f7016dd643b031dc8d5fbed87, type: 3}
  spriteManager: {fileID: 11400000, guid: 5fe216c4403efbd4598084a395e6c837, type: 2}
  spriteIndex: 86
  damageFactor: 0
  conditions: []
  damages: []
  selfDamages: []
  buffs: []
  debuffs:
  - {fileID: 11400000, guid: 98e135c2077c9034f90898a846a41d41, type: 2}
  instanceStats: []
  unitResources: []
  purgeCount: 0
  cleanseCount: 0
  period: 18
