%YAML 1.1
%TAG !u! tag:unity3d.com,2011:
--- !u!114 &11400000
MonoBehaviour:
  m_ObjectHideFlags: 0
  m_CorrespondingSourceObject: {fileID: 0}
  m_PrefabInternal: {fileID: 0}
  m_GameObject: {fileID: 0}
  m_Enabled: 1
  m_EditorHideFlags: 0
  m_Script: {fileID: 11500000, guid: dfee2b7e609ced244972e938e7722a17, type: 3}
  m_Name: __fearsome
  m_EditorClassIdentifier: 
  name: Fearsome
  sprite: {fileID: 21300000, guid: 39be1f5bdd4ddd64d8c3ae0074e26b35, type: 3}
  augmentBuilder: {fileID: 11400000, guid: aee872d31cb53eb4899a8abe0e81d584, type: 2}
  resourceAugments: []
  stats: []
