%YAML 1.1
%TAG !u! tag:unity3d.com,2011:
--- !u!114 &11400000
MonoBehaviour:
  m_ObjectHideFlags: 0
  m_CorrespondingSourceObject: {fileID: 0}
  m_PrefabInternal: {fileID: 0}
  m_GameObject: {fileID: 0}
  m_Enabled: 1
  m_EditorHideFlags: 0
  m_Script: {fileID: 11500000, guid: d9a95c8fb803c9642b95793a3a706c25, type: 3}
  m_Name: Barkeep
  m_EditorClassIdentifier: 
  DeveloperDescription: 
  name: Barkeep
  staticStats:
  - ModifierType: 0
    StatType: 46
    Value: 3
  - ModifierType: 0
    StatType: 49
    Value: 4
  statScalingPerLevel: 0
  abilities:
  - {fileID: 11400000, guid: 69a8b4390eae8354caa7b7f5cdad65ba, type: 2}
  triggeredActions: []
  talents:
  - left: {fileID: 11400000, guid: 8783f8b1519c6004188bebe4ee36b6c2, type: 2}
    right: {fileID: 11400000, guid: 19459610e9833214ab069f5aa1145ea4, type: 2}
  - left: {fileID: 11400000, guid: 12fbace0a8ba501408764a5db3701607, type: 2}
    right: {fileID: 11400000, guid: ef56a9c5a3db7784a84ae126fe6cf22a, type: 2}
  - left: {fileID: 11400000, guid: c9612a038f36aef49973589671baffdf, type: 2}
    right: {fileID: 11400000, guid: 12937aae133de414c8025e7e13492869, type: 2}
  - left: {fileID: 11400000, guid: f21a51eacdb4046438c191081d7d8113, type: 2}
    right: {fileID: 11400000, guid: 45739192399c59c4da067f1d27fe7aeb, type: 2}
  - left: {fileID: 11400000, guid: c0a2c9b234a146b459455b4de38ae358, type: 2}
    right: {fileID: 11400000, guid: 8f23a79127fb07b49882d0b300e8f165, type: 2}
  bonusLootMods: 0
  bonusLootLevel: 0
  identifyChance: 0
  unitResourceAugments: []
  lootValue: {fileID: 0}
