%YAML 1.1
%TAG !u! tag:unity3d.com,2011:
--- !u!114 &11400000
MonoBehaviour:
  m_ObjectHideFlags: 0
  m_CorrespondingSourceObject: {fileID: 0}
  m_PrefabInternal: {fileID: 0}
  m_GameObject: {fileID: 0}
  m_Enabled: 1
  m_EditorHideFlags: 0
  m_Script: {fileID: 11500000, guid: ce3fad34db9c8964399abc9a0fa335ff, type: 3}
  m_Name: Brained
  m_EditorClassIdentifier: 
  name: Brained
  spriteManager: {fileID: 11400000, guid: 5fe216c4403efbd4598084a395e6c837, type: 2}
  spriteIndex: 108
  sprite: {fileID: 21300000, guid: 874020256876a2e4297c0f54e4ff876b, type: 3}
  duration: 12
  period: 0
  damageFactor: 0
  periodicDamages: []
  finalDamages: []
  stats:
  - ModifierType: 0
    StatType: 39
    Value: -10
  - ModifierType: 0
    StatType: 31
    Value: -5
