%YAML 1.1
%TAG !u! tag:unity3d.com,2011:
--- !u!114 &11400000
MonoBehaviour:
  m_ObjectHideFlags: 0
  m_CorrespondingSourceObject: {fileID: 0}
  m_PrefabInternal: {fileID: 0}
  m_GameObject: {fileID: 0}
  m_Enabled: 1
  m_EditorHideFlags: 0
  m_Script: {fileID: 11500000, guid: 919fb9dbbd3fbcb4e9b47cb3d5166307, type: 3}
  m_Name: Named
  m_EditorClassIdentifier: 
  archetypes:
  - equipmentArchetype: {fileID: 11400000, guid: 16325b7d95ded574283048572f4894c2,
      type: 2}
    frequency: 1
  - equipmentArchetype: {fileID: 11400000, guid: 0a5dd6b56eac65142b975e2924396ec9,
      type: 2}
    frequency: 0.5
  - equipmentArchetype: {fileID: 11400000, guid: adae9a81296c92e4d88c88bc784f7945,
      type: 2}
    frequency: 0.75
  - equipmentArchetype: {fileID: 11400000, guid: aabb8c0dbfd8c554aa2566e854ef84a6,
      type: 2}
    frequency: 0.75
