%YAML 1.1
%TAG !u! tag:unity3d.com,2011:
--- !u!114 &11400000
MonoBehaviour:
  m_ObjectHideFlags: 0
  m_CorrespondingSourceObject: {fileID: 0}
  m_PrefabInternal: {fileID: 0}
  m_GameObject: {fileID: 0}
  m_Enabled: 1
  m_EditorHideFlags: 0
  m_Script: {fileID: 11500000, guid: b128b01e42a8dc444a894ae7966028a6, type: 3}
  m_Name: _Absolute Victory
  m_EditorClassIdentifier: 
  actionConditions: []
  period: 0
  buffs: []
  debuffs: []
  damages: []
  selfDamages: []
  instanceStats:
  - condition:
      target: 0
      comparison: 0
      type: 0
      value: 0
    stats:
    - ModifierType: 2
      StatType: 4
      Value: 0.5
  unitResources: []
  damageFactor: 0
  purgeCount: 0
  cleanseCount: 0
