%YAML 1.1
%TAG !u! tag:unity3d.com,2011:
--- !u!114 &11400000
MonoBehaviour:
  m_ObjectHideFlags: 0
  m_CorrespondingSourceObject: {fileID: 0}
  m_PrefabInternal: {fileID: 0}
  m_GameObject: {fileID: 0}
  m_Enabled: 1
  m_EditorHideFlags: 0
  m_Script: {fileID: 11500000, guid: ce3fad34db9c8964399abc9a0fa335ff, type: 3}
  m_Name: Hunger
  m_EditorClassIdentifier: 
  name: Hunger
  spriteManager: {fileID: 11400000, guid: 5fe216c4403efbd4598084a395e6c837, type: 2}
  spriteIndex: 100
  sprite: {fileID: 21300000, guid: 1958d054a92ae4341b55320e822ac23b, type: 3}
  duration: 8
  period: 2
  damageFactor: 0
  periodicDamages:
  - type: 7
    result: 0
    damageFactor: 0.15
    value: 2
  - type: 2
    result: 0
    damageFactor: 0.25
    value: 3
  finalDamages: []
  stats:
  - ModifierType: 2
    StatType: 0
    Value: -0.1
  - ModifierType: 2
    StatType: 4
    Value: -0.15
