%YAML 1.1
%TAG !u! tag:unity3d.com,2011:
--- !u!114 &11400000
MonoBehaviour:
  m_ObjectHideFlags: 0
  m_CorrespondingSourceObject: {fileID: 0}
  m_PrefabInternal: {fileID: 0}
  m_GameObject: {fileID: 0}
  m_Enabled: 1
  m_EditorHideFlags: 0
  m_Script: {fileID: 11500000, guid: 525bca66249c0d54aa2d05837f4ef6bd, type: 3}
  m_Name: Dominion
  m_EditorClassIdentifier: 
  talentName: Dominion
  talentCap: 3
  talentType: 3
  talentStats:
  - ModifierType: 2
    StatType: 0
    Value: 0.1
  - ModifierType: 0
    StatType: 30
    Value: 5
  abilityBuilders: []
  triggeredActions: []
