%YAML 1.1
%TAG !u! tag:unity3d.com,2011:
--- !u!114 &11400000
MonoBehaviour:
  m_ObjectHideFlags: 0
  m_CorrespondingSourceObject: {fileID: 0}
  m_PrefabInternal: {fileID: 0}
  m_GameObject: {fileID: 0}
  m_Enabled: 1
  m_EditorHideFlags: 0
  m_Script: {fileID: 11500000, guid: d9a95c8fb803c9642b95793a3a706c25, type: 3}
  m_Name: Tactician
  m_EditorClassIdentifier: 
  DeveloperDescription: 
  name: Tactician
  staticStats:
  - ModifierType: 0
    StatType: 37
    Value: 3
  - ModifierType: 0
    StatType: 43
    Value: 5
  statScalingPerLevel: 0
  abilities:
  - {fileID: 11400000, guid: a31a236de8234754aba9bbfe0382b944, type: 2}
  triggeredActions: []
  talents:
  - left: {fileID: 11400000, guid: d361dbb06ed1ef64391b655f247e82ee, type: 2}
    right: {fileID: 11400000, guid: e489b5dbe8108a9469ad173721d1d31a, type: 2}
  - left: {fileID: 11400000, guid: 5390f78cefc1bf1419f22b75fd0be3fb, type: 2}
    right: {fileID: 11400000, guid: 5e3ec2feb360aa342a7c6d9f344a3280, type: 2}
  - left: {fileID: 11400000, guid: 52178f66eb8dd264595eeadd4342cd2e, type: 2}
    right: {fileID: 11400000, guid: bff227ed31a2c0944a7e457e4515cf7e, type: 2}
  - left: {fileID: 11400000, guid: 308c15e7cbf13da43920489b77294b4d, type: 2}
    right: {fileID: 11400000, guid: 8a0f699289619214ab3eb9c52c5866d5, type: 2}
  - left: {fileID: 11400000, guid: c1e9d41bb403826429b84f15a0f83569, type: 2}
    right: {fileID: 11400000, guid: e5b5a08a21146f145b2b365704375361, type: 2}
  bonusLootMods: 0
  bonusLootLevel: 0
  identifyChance: 0
  unitResourceAugments: []
  lootValue: {fileID: 0}
