%YAML 1.1
%TAG !u! tag:unity3d.com,2011:
--- !u!114 &11400000
MonoBehaviour:
  m_ObjectHideFlags: 0
  m_CorrespondingSourceObject: {fileID: 0}
  m_PrefabInternal: {fileID: 0}
  m_GameObject: {fileID: 0}
  m_Enabled: 1
  m_EditorHideFlags: 0
  m_Script: {fileID: 11500000, guid: bddfe7ab9296d0e42a7c9d1e95437675, type: 3}
  m_Name: Radiance
  m_EditorClassIdentifier: 
  name: Radiance
  icon: {fileID: 21300000, guid: 4045dd136508af04ba9c14ce1e9809a7, type: 3}
  stats: []
  ability: {fileID: 11400000, guid: 44f3e3cb5091bc94880c6ee6cd75f33d, type: 2}
