%YAML 1.1
%TAG !u! tag:unity3d.com,2011:
--- !u!114 &11400000
MonoBehaviour:
  m_ObjectHideFlags: 0
  m_CorrespondingSourceObject: {fileID: 0}
  m_PrefabInternal: {fileID: 0}
  m_GameObject: {fileID: 0}
  m_Enabled: 1
  m_EditorHideFlags: 0
  m_Script: {fileID: 11500000, guid: 4b76adc36f3c34c46b251e47b7b9e91d, type: 3}
  m_Name: OrnateHeadress
  m_EditorClassIdentifier: 
  name: Ornate Headress
  spriteManager: {fileID: 11400000, guid: 5fe216c4403efbd4598084a395e6c837, type: 2}
  rarity: 1
  staticStats:
  - ModifierType: 0
    StatType: 5
    Value: 3
  - ModifierType: 0
    StatType: 0
    Value: 15
  - ModifierType: 1
    StatType: 10
    Value: 0.25
  - ModifierType: 0
    StatType: 17
    Value: 8
  - ModifierType: 0
    StatType: 45
    Value: 3
  scalingStats: []
  abilities:
  - {fileID: 11400000, guid: 885df6eac39b68541952e6a126f4372d, type: 2}
  triggeredActions: []
  sprite: {fileID: 21300000, guid: aa8ec6cac25048f44a54a776e7adec20, type: 3}
  spriteIndex: 68
  slot: 0
  recipeCost: {fileID: 11400000, guid: e9ad2898a63b7804f9af279bf57ecbca, type: 2}
