%YAML 1.1
%TAG !u! tag:unity3d.com,2011:
--- !u!114 &11400000
MonoBehaviour:
  m_ObjectHideFlags: 0
  m_CorrespondingSourceObject: {fileID: 0}
  m_PrefabInternal: {fileID: 0}
  m_GameObject: {fileID: 0}
  m_Enabled: 1
  m_EditorHideFlags: 0
  m_Script: {fileID: 11500000, guid: 132f10f97475e1949be71a8a949dbf57, type: 3}
  m_Name: __gix
  m_EditorClassIdentifier: 
  name: Gix
  leftSprite: {fileID: 21300000, guid: d255cf3de40ffdc43a175fbeca9bc0a3, type: 3}
  rightSprite: {fileID: 0}
  timedAbility: {fileID: 11400000, guid: 5448aba2f52ab3946b8ebfe152516e49, type: 2}
  triggeredAbility: {fileID: 0}
  options:
  - {fileID: 11400000, guid: 791e73fe3373e59449b184662c85ff43, type: 2}
  - {fileID: 11400000, guid: 6ec67ef12d4540b488c7d6d877606d8f, type: 2}
  - {fileID: 11400000, guid: f71b0ccc66b0d99458774774f0f3d5fa, type: 2}
  resourceAugments: []
  stats:
  - ModifierType: 0
    StatType: 0
    Value: -6
