%YAML 1.1
%TAG !u! tag:unity3d.com,2011:
--- !u!114 &11400000
MonoBehaviour:
  m_ObjectHideFlags: 0
  m_CorrespondingSourceObject: {fileID: 0}
  m_PrefabInternal: {fileID: 0}
  m_GameObject: {fileID: 0}
  m_Enabled: 1
  m_EditorHideFlags: 0
  m_Script: {fileID: 11500000, guid: 4b76adc36f3c34c46b251e47b7b9e91d, type: 3}
  m_Name: CursedTwig
  m_EditorClassIdentifier: 
  name: Cursed Twig
  spriteManager: {fileID: 11400000, guid: 5fe216c4403efbd4598084a395e6c837, type: 2}
  rarity: 1
  staticStats:
  - ModifierType: 0
    StatType: 18
    Value: 8
  - ModifierType: 0
    StatType: 8
    Value: 12
  - ModifierType: 0
    StatType: 44
    Value: 25
  - ModifierType: 1
    StatType: 10
    Value: -0.5
  - ModifierType: 0
    StatType: 31
    Value: -10
  scalingStats: []
  abilities:
  - {fileID: 11400000, guid: efc4cb8bd7dedf44a891b524564260a4, type: 2}
  triggeredActions: []
  sprite: {fileID: 21300000, guid: 5700271833ac061498ce0bd2f08aa2ac, type: 3}
  spriteIndex: 20
  slot: 3
  recipeCost: {fileID: 11400000, guid: e9ad2898a63b7804f9af279bf57ecbca, type: 2}
