%YAML 1.1
%TAG !u! tag:unity3d.com,2011:
--- !u!114 &11400000
MonoBehaviour:
  m_ObjectHideFlags: 0
  m_CorrespondingSourceObject: {fileID: 0}
  m_PrefabInternal: {fileID: 0}
  m_GameObject: {fileID: 0}
  m_Enabled: 1
  m_EditorHideFlags: 0
  m_Script: {fileID: 11500000, guid: b128b01e42a8dc444a894ae7966028a6, type: 3}
  m_Name: _Anger
  m_EditorClassIdentifier: 
  actionConditions: []
  period: 0
  buffs:
  - {fileID: 11400000, guid: 66a0ff56190af3d428dba0748f6ff73b, type: 2}
  debuffs: []
  damages: []
  selfDamages: []
  instanceStats: []
  unitResources: []
  damageFactor: 0
  purgeCount: 0
  cleanseCount: 0
