%YAML 1.1
%TAG !u! tag:unity3d.com,2011:
--- !u!114 &11400000
MonoBehaviour:
  m_ObjectHideFlags: 0
  m_CorrespondingSourceObject: {fileID: 0}
  m_PrefabInternal: {fileID: 0}
  m_GameObject: {fileID: 0}
  m_Enabled: 1
  m_EditorHideFlags: 0
  m_Script: {fileID: 11500000, guid: dfee2b7e609ced244972e938e7722a17, type: 3}
  m_Name: __blackenedAviatorHelm
  m_EditorClassIdentifier: 
  name: Blackened Aviator Helm
  sprite: {fileID: 21300000, guid: 4045dd136508af04ba9c14ce1e9809a7, type: 3}
  augmentBuilder: {fileID: 0}
  resourceAugments: []
  stats:
  - ModifierType: 0
    StatType: 13
    Value: 10
  - ModifierType: 0
    StatType: 31
    Value: 10
