%YAML 1.1
%TAG !u! tag:unity3d.com,2011:
--- !u!114 &11400000
MonoBehaviour:
  m_ObjectHideFlags: 0
  m_CorrespondingSourceObject: {fileID: 0}
  m_PrefabInternal: {fileID: 0}
  m_GameObject: {fileID: 0}
  m_Enabled: 1
  m_EditorHideFlags: 0
  m_Script: {fileID: 11500000, guid: bddfe7ab9296d0e42a7c9d1e95437675, type: 3}
  m_Name: End
  m_EditorClassIdentifier: 
  name: The End
  icon: {fileID: 21300000, guid: 5ffece97327c99f4da8122b55d082dfa, type: 3}
  stats:
  - ModifierType: 0
    StatType: 3
    Value: 15
  ability: {fileID: 0}
