%YAML 1.1
%TAG !u! tag:unity3d.com,2011:
--- !u!114 &11400000
MonoBehaviour:
  m_ObjectHideFlags: 0
  m_CorrespondingSourceObject: {fileID: 0}
  m_PrefabInternal: {fileID: 0}
  m_GameObject: {fileID: 0}
  m_Enabled: 1
  m_EditorHideFlags: 0
  m_Script: {fileID: 11500000, guid: ff3581a22e4d5594da0f2bcaf581bf5a, type: 3}
  m_Name: _jinx
  m_EditorClassIdentifier: 
  name: Jinx
  proficiencyType: 5
  sprite: {fileID: 21300000, guid: 32ffbc3200735934ea92178e9bfdb501, type: 3}
  spriteManager: {fileID: 11400000, guid: 5fe216c4403efbd4598084a395e6c837, type: 2}
  spriteIndex: 83
  damageFactor: 0
  conditions: []
  damages: []
  selfDamages: []
  buffs: []
  debuffs:
  - {fileID: 11400000, guid: de45eccd7bd24c644893d55d718de17d, type: 2}
  instanceStats: []
  unitResources: []
  purgeCount: 0
  cleanseCount: 0
  period: 6
