%YAML 1.1
%TAG !u! tag:unity3d.com,2011:
--- !u!114 &11400000
MonoBehaviour:
  m_ObjectHideFlags: 0
  m_CorrespondingSourceObject: {fileID: 0}
  m_PrefabInternal: {fileID: 0}
  m_GameObject: {fileID: 0}
  m_Enabled: 1
  m_EditorHideFlags: 0
  m_Script: {fileID: 11500000, guid: dfee2b7e609ced244972e938e7722a17, type: 3}
  m_Name: __scatter
  m_EditorClassIdentifier: 
  name: Scatter
  sprite: {fileID: 21300000, guid: 1b7181ba59f8d3e44a116e0a84a3d30c, type: 3}
  augmentBuilder: {fileID: 11400000, guid: 57032999bca76c0489057ad19651c0b5, type: 2}
  resourceAugments: []
  stats: []
