%YAML 1.1
%TAG !u! tag:unity3d.com,2011:
--- !u!114 &11400000
MonoBehaviour:
  m_ObjectHideFlags: 0
  m_CorrespondingSourceObject: {fileID: 0}
  m_PrefabInternal: {fileID: 0}
  m_GameObject: {fileID: 0}
  m_Enabled: 1
  m_EditorHideFlags: 0
  m_Script: {fileID: 11500000, guid: 132f10f97475e1949be71a8a949dbf57, type: 3}
  m_Name: __arcaneTorrent
  m_EditorClassIdentifier: 
  name: Arcane Torrent
  leftSprite: {fileID: 21300000, guid: f1638d36daaf5bf4ba7aab0508020848, type: 3}
  rightSprite: {fileID: 0}
  timedAbility: {fileID: 11400000, guid: 5ef42f59e2077a64ba320282767af5c7, type: 2}
  triggeredAbility: {fileID: 0}
  options:
  - {fileID: 11400000, guid: 73514bd22b5b74d41aab1092cbf1c26a, type: 2}
  - {fileID: 11400000, guid: fce601e02a14fb34e9fba294b9409c02, type: 2}
  - {fileID: 11400000, guid: fe6de79ab8cc9f24fad083a7393ca03d, type: 2}
  resourceAugments: []
  stats: []
