%YAML 1.1
%TAG !u! tag:unity3d.com,2011:
--- !u!114 &11400000
MonoBehaviour:
  m_ObjectHideFlags: 0
  m_CorrespondingSourceObject: {fileID: 0}
  m_PrefabInternal: {fileID: 0}
  m_GameObject: {fileID: 0}
  m_Enabled: 1
  m_EditorHideFlags: 0
  m_Script: {fileID: 11500000, guid: 51f3574190f32d54b97c69fd02ffd7aa, type: 3}
  m_Name: AbilitySprites
  m_EditorClassIdentifier: 
  sprites:
  - {fileID: 21300000, guid: 27ea94480c48a244ebfe9e0ff83e7ff5, type: 3}
  - {fileID: 21300000, guid: 32ffbc3200735934ea92178e9bfdb501, type: 3}
  - {fileID: 21300000, guid: 28a1cda17fb0443499f41ba0d821eef6, type: 3}
  - {fileID: 21300000, guid: f1638d36daaf5bf4ba7aab0508020848, type: 3}
  - {fileID: 21300000, guid: e594348f7016dd643b031dc8d5fbed87, type: 3}
  - {fileID: 21300000, guid: 8b2c916c0d307d941b57988f49f1ba7e, type: 3}
  - {fileID: 21300000, guid: 081f7ffe8a83a11439b2581a5d28b405, type: 3}
  - {fileID: 21300000, guid: ba62e645a3841924fb3e89d880f4c0a0, type: 3}
  - {fileID: 21300000, guid: 1958d054a92ae4341b55320e822ac23b, type: 3}
  - {fileID: 21300000, guid: adc9e0da170c7cb4aa6b79cd0d7c0e9e, type: 3}
  - {fileID: 21300000, guid: 6be378369b5ba4346952a9ccea8ea5b9, type: 3}
  - {fileID: 21300000, guid: ae4a0e8fddd810845bd9e8fd2dacc98f, type: 3}
  - {fileID: 21300000, guid: 8fa267670b024054498c0a61c1b3f162, type: 3}
  - {fileID: 21300000, guid: 9bb6eae42a9997742bb1219c98ed963f, type: 3}
  - {fileID: 21300000, guid: fccff7edd5cefde4d9742e2e3d8b2532, type: 3}
  - {fileID: 21300000, guid: 6f1d3955becd1cc48b8358b7e731b933, type: 3}
  - {fileID: 21300000, guid: d255cf3de40ffdc43a175fbeca9bc0a3, type: 3}
  - {fileID: 21300000, guid: 4045dd136508af04ba9c14ce1e9809a7, type: 3}
  - {fileID: 21300000, guid: c8ca70418aa48cb4b95b6d598948521a, type: 3}
  - {fileID: 21300000, guid: 9399d37f80a679b478f85356a79e7258, type: 3}
  - {fileID: 21300000, guid: c2876527397ec784e9bee0500140f722, type: 3}
  - {fileID: 21300000, guid: 59d3c2e494e528e489b838b114c44fc3, type: 3}
  - {fileID: 21300000, guid: e812a907edd090c4eb0232f7657dc6d4, type: 3}
  - {fileID: 21300000, guid: 47f42c316be188646b0e6714624d1452, type: 3}
  - {fileID: 21300000, guid: 1a21c34faa9f70145ab6c4c4bdbd897c, type: 3}
  - {fileID: 21300000, guid: 1b7181ba59f8d3e44a116e0a84a3d30c, type: 3}
  - {fileID: 21300000, guid: 874020256876a2e4297c0f54e4ff876b, type: 3}
  - {fileID: 21300000, guid: 39be1f5bdd4ddd64d8c3ae0074e26b35, type: 3}
  - {fileID: 21300000, guid: 5ffece97327c99f4da8122b55d082dfa, type: 3}
  - {fileID: 21300000, guid: ed0d4b6f928fa014ca747ebf02190ec4, type: 3}
  - {fileID: 21300000, guid: 8be7e571a976a684e8f2d3c5a3bce1c0, type: 3}
  - {fileID: 21300000, guid: 1586fd9437e6876448984e2fd36519b2, type: 3}
  - {fileID: 21300000, guid: 95c3886a4b7439c4eaded5d893562160, type: 3}
  - {fileID: 21300000, guid: 80e6dc9eaeaef05478db6dc69d13e0d0, type: 3}
  - {fileID: 21300000, guid: 5adb376e04f39a74d822ef788d69b53c, type: 3}
  - {fileID: 21300000, guid: bce54e8b3de628e4ba4f9b9c5635baad, type: 3}
  - {fileID: 21300000, guid: 63d139bbe606adf45bf407b96669b193, type: 3}
  - {fileID: 21300000, guid: 490ba4fdb809aa34aa34cb8d269d9403, type: 3}
