%YAML 1.1
%TAG !u! tag:unity3d.com,2011:
--- !u!114 &11400000
MonoBehaviour:
  m_ObjectHideFlags: 0
  m_CorrespondingSourceObject: {fileID: 0}
  m_PrefabInternal: {fileID: 0}
  m_GameObject: {fileID: 0}
  m_Enabled: 1
  m_EditorHideFlags: 0
  m_Script: {fileID: 11500000, guid: 132f10f97475e1949be71a8a949dbf57, type: 3}
  m_Name: __ambush
  m_EditorClassIdentifier: 
  name: Ambush
  leftSprite: {fileID: 21300000, guid: 28a1cda17fb0443499f41ba0d821eef6, type: 3}
  rightSprite: {fileID: 0}
  timedAbility: {fileID: 11400000, guid: 175eab7b66dab854db96c7f69dc5620d, type: 2}
  triggeredAbility: {fileID: 0}
  options:
  - {fileID: 11400000, guid: db3a5963fbc16934bba10a8f24344764, type: 2}
  - {fileID: 11400000, guid: fd81c72710d47e7488bc303dc64a4ef9, type: 2}
  - {fileID: 11400000, guid: 6bb956031d6b80140ba80539c96287ff, type: 2}
  resourceAugments: []
  stats: []
