%YAML 1.1
%TAG !u! tag:unity3d.com,2011:
--- !u!114 &11400000
MonoBehaviour:
  m_ObjectHideFlags: 0
  m_CorrespondingSourceObject: {fileID: 0}
  m_PrefabInternal: {fileID: 0}
  m_GameObject: {fileID: 0}
  m_Enabled: 1
  m_EditorHideFlags: 0
  m_Script: {fileID: 11500000, guid: ce3fad34db9c8964399abc9a0fa335ff, type: 3}
  m_Name: scorching
  m_EditorClassIdentifier: 
  name: Scorching
  spriteManager: {fileID: 11400000, guid: 5fe216c4403efbd4598084a395e6c837, type: 2}
  spriteIndex: 92
  sprite: {fileID: 21300000, guid: ae4a0e8fddd810845bd9e8fd2dacc98f, type: 3}
  duration: 12
  period: 3
  damageFactor: 0
  periodicDamages:
  - type: 4
    result: 0
    damageFactor: 0.45
    value: 5
  finalDamages: []
  stats: []
