%YAML 1.1
%TAG !u! tag:unity3d.com,2011:
--- !u!114 &11400000
MonoBehaviour:
  m_ObjectHideFlags: 0
  m_CorrespondingSourceObject: {fileID: 0}
  m_PrefabInternal: {fileID: 0}
  m_GameObject: {fileID: 0}
  m_Enabled: 1
  m_EditorHideFlags: 0
  m_Script: {fileID: 11500000, guid: 132f10f97475e1949be71a8a949dbf57, type: 3}
  m_Name: __blastingSphere
  m_EditorClassIdentifier: 
  name: Blasting Sphere
  leftSprite: {fileID: 21300000, guid: f1638d36daaf5bf4ba7aab0508020848, type: 3}
  rightSprite: {fileID: 21300000, guid: ba62e645a3841924fb3e89d880f4c0a0, type: 3}
  timedAbility: {fileID: 11400000, guid: 86ab206a4101e564187f534c208ca322, type: 2}
  triggeredAbility: {fileID: 0}
  options:
  - {fileID: 11400000, guid: 1c849b3856fb86946b85c56275491766, type: 2}
  - {fileID: 11400000, guid: 3e7b0e9c02e0fbe4bbc0473b3955a335, type: 2}
  - {fileID: 11400000, guid: 37b10e7b4e8770e4ab65ca6d8ac3ddb5, type: 2}
  resourceAugments: []
  stats: []
