%YAML 1.1
%TAG !u! tag:unity3d.com,2011:
--- !u!114 &11400000
MonoBehaviour:
  m_ObjectHideFlags: 0
  m_CorrespondingSourceObject: {fileID: 0}
  m_PrefabInternal: {fileID: 0}
  m_GameObject: {fileID: 0}
  m_Enabled: 1
  m_EditorHideFlags: 0
  m_Script: {fileID: 11500000, guid: ff3581a22e4d5594da0f2bcaf581bf5a, type: 3}
  m_Name: _blastingSphere
  m_EditorClassIdentifier: 
  sprite: {fileID: 21300000, guid: ba62e645a3841924fb3e89d880f4c0a0, type: 3}
  spriteManager: {fileID: 11400000, guid: 5fe216c4403efbd4598084a395e6c837, type: 2}
  spriteIndex: 91
  damages:
  - type: 6
    result: 0
    damageFactor: 1.4
    value: 6
  buffs: []
  debuffs: []
  name: Blasting Sphere
  proficiencyType: 0
  conditions: []
  period: 45
  damageFactor: 0
  selfDamages: []
  instanceStats: []
  unitResources: []
  purgeCount: 0
  cleanseCount: 0
