%YAML 1.1
%TAG !u! tag:unity3d.com,2011:
--- !u!114 &11400000
MonoBehaviour:
  m_ObjectHideFlags: 0
  m_CorrespondingSourceObject: {fileID: 0}
  m_PrefabInternal: {fileID: 0}
  m_GameObject: {fileID: 0}
  m_Enabled: 1
  m_EditorHideFlags: 0
  m_Script: {fileID: 11500000, guid: bf31ac307313d6348a2252f58164a1de, type: 3}
  m_Name: _Shields 2
  m_EditorClassIdentifier: 
  setName: Light Shield
  generators:
  - generator: {fileID: 11400000, guid: 125afcb4dcd024d47850d988e4bdbdee, type: 2}
    frequency: 0.25
