%YAML 1.1
%TAG !u! tag:unity3d.com,2011:
--- !u!114 &11400000
MonoBehaviour:
  m_ObjectHideFlags: 0
  m_CorrespondingSourceObject: {fileID: 0}
  m_PrefabInternal: {fileID: 0}
  m_GameObject: {fileID: 0}
  m_Enabled: 1
  m_EditorHideFlags: 0
  m_Script: {fileID: 11500000, guid: 132f10f97475e1949be71a8a949dbf57, type: 3}
  m_Name: __iundu'r
  m_EditorClassIdentifier: 
  name: Iundu'r
  leftSprite: {fileID: 21300000, guid: 4045dd136508af04ba9c14ce1e9809a7, type: 3}
  rightSprite: {fileID: 0}
  timedAbility: {fileID: 11400000, guid: 7979dee86daf004458c15472c23b42f0, type: 2}
  triggeredAbility: {fileID: 0}
  options:
  - {fileID: 11400000, guid: e0036f4ede9fbf64d891fbc676345e6c, type: 2}
  - {fileID: 11400000, guid: 7683ae1bf9aad074c8364b03b704ef32, type: 2}
  - {fileID: 11400000, guid: 66eb7c88842c9a045b2ad381cb722bc2, type: 2}
  resourceAugments: []
  stats:
  - ModifierType: 0
    StatType: 0
    Value: -3
