%YAML 1.1
%TAG !u! tag:unity3d.com,2011:
--- !u!114 &11400000
MonoBehaviour:
  m_ObjectHideFlags: 0
  m_CorrespondingSourceObject: {fileID: 0}
  m_PrefabInternal: {fileID: 0}
  m_GameObject: {fileID: 0}
  m_Enabled: 1
  m_EditorHideFlags: 0
  m_Script: {fileID: 11500000, guid: bc1062d5678523545aab97a2dd9f1b18, type: 3}
  m_Name: Spyglass
  m_EditorClassIdentifier: 
  name: Spyglass
  stats:
  - ModifierType: 0
    StatType: 26
    Value: 10
