%YAML 1.1
%TAG !u! tag:unity3d.com,2011:
--- !u!114 &11400000
MonoBehaviour:
  m_ObjectHideFlags: 0
  m_CorrespondingSourceObject: {fileID: 0}
  m_PrefabInternal: {fileID: 0}
  m_GameObject: {fileID: 0}
  m_Enabled: 1
  m_EditorHideFlags: 0
  m_Script: {fileID: 11500000, guid: d9a95c8fb803c9642b95793a3a706c25, type: 3}
  m_Name: Thief
  m_EditorClassIdentifier: 
  name: Thief
  stats:
  - ModifierType: 0
    StatType: 1
    Value: 15
  - ModifierType: 0
    StatType: 2
    Value: 10
  - ModifierType: 0
    StatType: 3
    Value: 10
  abilities:
  - {fileID: 11400000, guid: 061d2b12d7decb34db93e0f4db2177a5, type: 2}
  talents: {fileID: 11400000, guid: b44d7863741d27b4d9c69009f522d4c3, type: 2}
