%YAML 1.1
%TAG !u! tag:unity3d.com,2011:
--- !u!114 &11400000
MonoBehaviour:
  m_ObjectHideFlags: 0
  m_CorrespondingSourceObject: {fileID: 0}
  m_PrefabInternal: {fileID: 0}
  m_GameObject: {fileID: 0}
  m_Enabled: 1
  m_EditorHideFlags: 0
  m_Script: {fileID: 11500000, guid: dfee2b7e609ced244972e938e7722a17, type: 3}
  m_Name: __terror
  m_EditorClassIdentifier: 
  name: Terror
  sprite: {fileID: 21300000, guid: 1586fd9437e6876448984e2fd36519b2, type: 3}
  augmentBuilder: {fileID: 11400000, guid: d80ffbc80990c564e8c0c2e9e6bac967, type: 2}
  resourceAugments: []
  stats: []
