%YAML 1.1
%TAG !u! tag:unity3d.com,2011:
--- !u!114 &11400000
MonoBehaviour:
  m_ObjectHideFlags: 0
  m_CorrespondingSourceObject: {fileID: 0}
  m_PrefabInternal: {fileID: 0}
  m_GameObject: {fileID: 0}
  m_Enabled: 1
  m_EditorHideFlags: 0
  m_Script: {fileID: 11500000, guid: 919fb9dbbd3fbcb4e9b47cb3d5166307, type: 3}
  m_Name: fur
  m_EditorClassIdentifier: 
  archetypes:
  - equipmentArchetype: {fileID: 11400000, guid: 0c17107e5802c2a4585da563b1664a89,
      type: 2}
    frequency: 1
  - equipmentArchetype: {fileID: 11400000, guid: d58960ca5f80bab4d8f3e78982a4a6ba,
      type: 2}
    frequency: 1
  - equipmentArchetype: {fileID: 11400000, guid: 6729f7ff239fa3147a236f50198a2ce5,
      type: 2}
    frequency: 1
  - equipmentArchetype: {fileID: 11400000, guid: b006ee96d84c1b44997dbc6e43a1f01e,
      type: 2}
    frequency: 1
