%YAML 1.1
%TAG !u! tag:unity3d.com,2011:
--- !u!114 &11400000
MonoBehaviour:
  m_ObjectHideFlags: 0
  m_CorrespondingSourceObject: {fileID: 0}
  m_PrefabInternal: {fileID: 0}
  m_GameObject: {fileID: 0}
  m_Enabled: 1
  m_EditorHideFlags: 0
  m_Script: {fileID: 11500000, guid: 525bca66249c0d54aa2d05837f4ef6bd, type: 3}
  m_Name: HolyOils
  m_EditorClassIdentifier: 
  talentName: Holy Oils
  talentCap: 1
  talentStats: []
  abilityBuilders:
  - {fileID: 11400000, guid: 2b7ccc754c261df47ae86f15c60bbf07, type: 2}
