%YAML 1.1
%TAG !u! tag:unity3d.com,2011:
--- !u!114 &11400000
MonoBehaviour:
  m_ObjectHideFlags: 0
  m_CorrespondingSourceObject: {fileID: 0}
  m_PrefabInternal: {fileID: 0}
  m_GameObject: {fileID: 0}
  m_Enabled: 1
  m_EditorHideFlags: 0
  m_Script: {fileID: 11500000, guid: 1853344b88ddebf4eb4fde6132d10268, type: 3}
  m_Name: DefenseTier2
  m_EditorClassIdentifier: 
  stats:
  - modifier: 0
    stat: 0
    frequency: 1
  - modifier: 1
    stat: 5
    frequency: 1
  - modifier: 0
    stat: 7
    frequency: 1
  - modifier: 0
    stat: 9
    frequency: 1
  - modifier: 0
    stat: 13
    frequency: 1
  - modifier: 0
    stat: 15
    frequency: 1
  - modifier: 0
    stat: 17
    frequency: 1
  - modifier: 0
    stat: 19
    frequency: 1
  - modifier: 0
    stat: 29
    frequency: 1
  - modifier: 0
    stat: 30
    frequency: 1
