%YAML 1.1
%TAG !u! tag:unity3d.com,2011:
--- !u!114 &11400000
MonoBehaviour:
  m_ObjectHideFlags: 0
  m_CorrespondingSourceObject: {fileID: 0}
  m_PrefabInternal: {fileID: 0}
  m_GameObject: {fileID: 0}
  m_Enabled: 1
  m_EditorHideFlags: 0
  m_Script: {fileID: 11500000, guid: e4d2a9353f8fce846a713f92c1f0ffb6, type: 3}
  m_Name: Requital
  m_EditorClassIdentifier: 
  sprite: {fileID: 21300000, guid: 28a1cda17fb0443499f41ba0d821eef6, type: 3}
  spriteManager: {fileID: 11400000, guid: 5fe216c4403efbd4598084a395e6c837, type: 2}
  spriteIndex: 78
  damages:
  - type: 0
    result: 0
    damageFactor: 0.75
    value: 3
  - type: 7
    result: 0
    damageFactor: 0.55
    value: 3
  buffs:
  - {fileID: 11400000, guid: df7639a6b5b513d479b22e50192de1f5, type: 2}
  debuffs: []
  name: Requital
  proficiencyType: 2
  conditions: []
  period: 6
  damageFactor: 0
  selfDamages: []
  instanceStats: []
  unitResources: []
  purgeCount: 0
  cleanseCount: 0
